8tY62b3uRbiRlHC2xoPw, 2017-02-20 14:54:35
v0h-ffdb7zsQYBzg3Zb9, 2017-02-22 09:14:39
dklSaCuuMhwpilt_I192, 2017-02-23 13:35:57
CGkeNldv0YfB7kVbPKoj, 2017-02-28 00:44:32
xtyCejgjhWGg53vZ6Zcy, 2017-03-01 15:19:19
rKIFNKckKhfqxrYxcENC, 2017-03-05 00:01:11
eUSpNTvdkU1tJYex2Eoe, 2017-03-06 16:31:39
HK0SlM-RM9bFoYScurC3, 2017-03-07 20:42:43
qsv4lYnmJeQTnNc-MAdN, 2017-03-08 21:59:43
xSyrxAiQ_M9xXXKohyF5, 2017-03-10 21:45:36
O1QDRrBiMc9hfuk678JN, 2017-03-12 22:52:24
ozpW9hjvtbvLnKCinubF, 2017-03-14 23:24:29
sAPcAL17qGWYWNvqb_Qe, 2017-03-16 08:36:16
N8K74gVmmZV61j2uI-f2, 2017-03-17 17:21:39
CQ10t1rgnb5WlzwE2vUQ, 2017-03-19 05:27:58
XhCUeKMNCZJBNq32lLV7, 2017-03-21 12:24:05
PZ_DQdpOlg6mvZeIu45k, 2017-03-25 16:53:14
XyUWWUikHx2S6Y_0fZiq, 2017-03-26 18:29:07
lxWQe0J7Z4fAd2DPrNTF, 2017-03-27 18:35:17
vJ-fZtN9reb3oXGmFJJM, 2017-03-28 21:41:30
JoNcXCOixe0vgAwTzP-8, 2017-03-29 23:39:22
