3,testdriver1 anan,,axels@qwick.com,mumbai,qwerty,915e01a28d98cb46,1,2,960096002,Male,15-06-2016,T,960096002,hindi,2 years,BE
4,Nitin,,nitinsutarqd@gmail.com,"Vaishali Nagar, ",qwikdryver,6b436eeb5952981a,1,2,8446890506,Male,25-12-2015,T,MH06 20140001679,"Marathi, Hindi",4,8th Standard
5,Bhalchandra,,bhalachandrathombareqd@gmail.com,"SHAHU NAGAR, BUI",qwikdryver,b61ee5f1ae132c28,1,2,8286837670,Male,30-12-2015,T,MH01 20090010578,"Marathi, Hindi, ",18,SSC
7,Abdul,Wahab,abdulwahabqd@gmail.com,"BEHIND 20, PDA NO 25362, GILBERT HILL ROAD, ANDHERI(WEST) MUMBAI - 400058",qwikdryver,,0,2,8652459495,Male,01-01-1965,T,MH02 20100086335,"Hindi, Urdu",30,6th
8,Gopal,Bhatia,gopalbhatia1956@gmail.com,"A-304, LAXMI RATAN BUILDING NO 9, RATAN NAGAR, VERSOVA, MUMBAI - 53",qwikdryver,,0,2,8080112743,Male,18-05-1956,T,MH 02 1976605072,"English, Sindhi, Hindi, Marathi, Gujrati, Punjabi, Konkani",38,SSC
9,Rajesh,Mehta,mehtarajesh740@gmail.com,"Motilal Nehru Nagar, Madraswadi, Dr AB Road, Worli, Mumbai - 18",qwikdryver,,0,2,9920624589,Male,08-02-1985,T,MH01 20060003130,HIndi,7,SSC
10,Santosh,Gupta,santoshthater@gmail.com,"B R Nagar, Haridas Complex, Neha Palace, 3rd Floor, flat no 301, Diva East, Thane - 400612",qwikdryver,40f5638d5e336e7a,1,2,9594236809,Male,10-10-1970,T,95/c/9477,"Hindi, English, Marathi",21,SSC
11,Ilyas,Shaikh,tiyasshaikh198762@gmail.com,"SHAM SHUDDIN COMPOUND, GALA NO 19, JARI MARI, KURLA ANDHERI ROAD, KURLA, MUMBAI - 72",qwikdryver,f63de5e738a9a8f5,1,2,9224315196,Male,21-05-1987,T,MH03 20070000496,"Hindi, English, Marathi",7,SSC
12,Mahendra,Ghadi,mahendraghadiqd@gmail.com,"NEW HAJI KASAM CHAWL, NO 60, R NO 8, CURRY ROAD, MUMBAI -12",zuver123,fd7b0a88e4bb9193,1,2,8689935101,Male,14-04-1982,T,MH01 20090095503,"Marathi, Hindi",12,SSC
13,Ashok,Khade,ashokkhadeqd@gmail.com,"Room no 4, Dinkar Chawl, Goandevi Dongri Kama Road, Andheri West, Mumbai 58",qwikdryver,,0,2,9664358211,Male,20-07-1973,T,MH 02 93/47828,"Marathi, Hindi, English",21,SSC
14,Kedar,Mandal,kedarmandalqd@gmail.com,"GROUND FLOOR, R/70/2/2, MOTILAL NEHRU NAGAR, DR A B ROAD, WORLI, MUMBAI",qwikdryver,91d0c4055de92df0,1,2,7045171372,Male,15-04-1980,T,MH 01 20080137807,HIndi,7,8th Standard
15,Ramesh,Pasi,pasiramesh74@gmail.com,"Room No 22, Hira Seth Chawl No 4, Worli Village, Mumbai - 30",qwikdryver,a7fb66fe2bc27bb,1,2,9321725022,Male,10-01-1976,T,MH01 20100019670,"Hindi, Marathi",20,9th
16,Manish,Shukla,manishshuklaqd@gmail.com,"Sheetal Baug, Sheetal Sagar, 64 Ground Floor, Walkeshwar Road, Mumbai",qwikdryver,6c2e241fc55c3ad2,1,2,9833808021,Male,17-02-1977,T,MH01 20090095495,"Marathi, Hindi, English, Gujrati",18,SSC
17,Ozee,Farnandis,ozeefarnandis@gmail.com,"R 519, Sainath Zopadpatti, SM Road Antop Hill, Mumbai - 37",qwikdryver,,0,2,9004365360,Male,22-05-1969,T,MH01 20100050683,"Hindi, English, Marathi",17,7th
18,Tejas,Kamble,nidhi24122012@gmail.com,"Lallubhai Compound, Krishna Building No 4, Room no 101, A Wing Mankhurd, Mumbai - 43",qwikdryver,e2dc8a9d8ee1dc00,1,2,7506021606,Male,04-06-1987,T,MH03 20070001434,"Marathi, Hindi, English",7,SSC
19,Rahul,Kadam,rahulkadam337@gmail.com,"Takiyaward, Khot Chawl No 35/3, 1st Floor, S.M. Marg, Kurla (W), Mumbai - 70",qwikdryver,,0,2,9819941725,Male,03-07-1987,T,MH01 20070050673,"Marathi, Hindi",13,SSC
20,Vishal,Shivkar,vishalshivkar84@gmail.com,"R No 30, Roshan Nagar Zopadpatti Sangh, Cama Road, Near Wahid Lala Garege, Andheri (W), Mumbai - 58",qwikdryver,4a6e6b2f63732c65,1,2,8767911562,Male,03-08-1984,T,MH02 20130045026,"Marathi, Hindi",10,7th
21,Ravindra,Sapte,ravishsapte09@gmail.com,"Asha Shobha Chawl, Behind 3 Bunglow, Jawahar Nagar, Khar (East), Mumbai - 51",qwikdryver,3c696824b798eef0,1,2,9833312472,Male,25-05-1970,T,MH 02 19950008194,"Hindi, Marathi, English",19,FY B Com
22,Murgs,M,muruganantham.m@ndot.in,india,qwerty,FC0AEBCE-2738-480B-B27C-E4263D31ED39,2,2,9944773777,Male,0000-00-00,T,9944773777,Tamil,5,MSC
23,Sunil,Waman,sunilwaman05@gmail.com,"Zoram Keni Chawl, Room NO 4, Ram Nagar, Mithagar Road, Bhandup East",qwikdryver,,0,2,9987464120,Male,05-03-1970,T,MH 14 20080056934,"Marathi, Hindi, English",15,HSC
24,Gayasuddin,Mansuri,mman71806@gmail.com,"29 Ali Umer Street, Pathan Building,3rd Floor, Room no 13, Mumbai 3",qwikdryver,,0,2,9870460248,Male,04-01-1976,T,MH 01 19950061083,"Hindi, English, Marathi, Gujrati",12,4th Std
25,Ashraf,Patel,ashrafp159@gmail.com,"Flat No 18, Building No Q, BEST Vasahat, Chunabhatti, SV Road, Santacruz (W), Mumbai - 54",qwikdryver,42d4fc5199e68cbe,1,2,8433653634,Male,12-05-1990,T,MH 02 20140048147,"Marathi, Hindi, English",8,SSC
26,Rajiv,Oberai,khushioberoi12@gmail.com,"202, Mahesh Ashish Model Town, JP Road, 7 Bunglows, Andheri (W), Mumbai - 58",qwikdryver,,0,2,9819545040,Male,24-04-1974,T,MH 02 20130011143,"Hindi, English, Marathi, Punjabi",22,SSC
27,Sovin,Hegde,sovin@qwikdryver.com,"ABC, XYZ Road, Santacruz West",123456,CA61D396-6CD8-4901-BDAC-EDCCBDD00CE1,2,2,9819896587,Male,0000-00-00,T,MH 01 2005006009,"Hindi, Marathi, English",10,SSC
28,Bhavesh,Gohil,bhaveshgohil833@gmail.com,"Room no 402, 4th Floor, Mahesh Building, N M Joshi Marg, Byculla West, Mumbai - 11",qwikdryver,3ef9ae1d2f13cceb,1,2,9930800931,Male,13-09-1994,T,MH 01 20130007420,"Hindi, English, Marathi, Gujrati",3,SY B Com
29,Manish,Shukla,sanilkumar61@gmail.com,"Sheetal Baug, Sheetal Nagar, Ground Floor, Walkeshwar Road, Mumbai - 400006",qwikdryver,19889532702890b5,1,2,9172832874,Male,17-02-1977,T,MH 01 20090095495,"Hindi, English, Marathi, Gujrati",18,SSC
30,Sabeer,Patel,patelsabeer9@gmail.com,"Ashiyana elfare Kamahill CHS, Rasuli Chawl, Near Tata Compound, Cama Road, Gaondevi Dongri, Andheri (West), Mumbai - 58",qwikdryver,5921038c81696918,1,2,7666608532,Male,29-09-1986,T,MH 02 20073015054,"Hindi, English, Marathi",10,SSC
31,testdriver4,,testdriver4@taximobility.com,India,qwerty,67C6C070-5363-47C7-9AAE-64D2341E0C3E,2,2,960096004,Male,21-01-2016,T,960096004,"Tamil,English",5,BE
32,Manish,Shukla,shuklamanishqd@gmail.com,"Sheetal Baug, Sheetal Nagar, 63 Ground Floor, Walkeshwar Road, Mumbai - 400006",qwikdryver,f06e1efe5669aa1a,1,2,9172982183,Male,17-02-1977,T,MH 01 20090095495,"Marathi, English, Hindi",18,SSC
33,Sanil,,sovin.hegde@gmail.com,ldnflksdnlfk,qwikdryver,915e01a28d98cb46,1,2,7506104248,Male,28-01-2016,T,sdkfnskdnlfkns,kln,lkkn,lkknlk
34,Sunil,Waman,sunilwamanqd@gmail.com,"Joram Keni Chawl, Room NO 4, Ram Nagar, Bhandun East, Mumbai - 42",qwikdryver,1682ac1db5997eae,1,2,8767044744,Male,05-03-1970,T,MH 14 20080056934,"Hindi, Marathi, English",15,HSC
35,test,,testdriver13@taximobility.com,Indai,qwerty,9f4898aaa525e246,1,2,960096013,Male,11-09-1991,T,9600960013,tamil,5,rajesh
36,Vinod,Singh,vinodsumansingh@gmail.com,"B Wing, 306, Seema Niwas, Ambawadi, Achole Road Nalasopara (East)",qwikdryver,,0,2,9322546065,Male,20-08-1976,T,MH 01 20080106242,"Hindi, Marathi, Gujrati, Marwadi",24,SSC
37,testdriver14,,testdriver14@taximobility.com,India,qwerty,c45de3d6db93051c,1,2,9600096014,Male,15-04-2016,T,960096014,India,5,MSC
38,testdriver15,t,testdriver15@taximobility.com,India,qwerty,ff22e53528aa9750,1,2,960096015,Male,13-01-1994,T,960096015,english,3,MSC
39,Himanshu,Khanvilkar,hkhanvilkar9.hk@gmail.com,"11/7698, ABhudaya Nagar, Kalachawki, Housing Board, Mumbai - 33",himanshu,,0,2,8879155011,Male,09-08-1983,T,MH 01 2005/C/34250,"Marathi, English, Hindi",16,SSC
40,testdriver7,,testdriver7@taximobility.com,india,qwerty,e36601c9168e164c,1,2,960096007,Male,14-06-2016,T,960096005,tamil,2,MSC
41,testdriver8,t,testdriver8@taximobility.com,india,qwerty,ff22e53528aa9750,1,2,960096008,Male,25-01-1995,T,960096007,tamil,7,MSC
42,testdriver9,,testdriver9@taximobility.com,india,qwerty,4b9833af2448fa0,1,2,960096009,Male,11-07-2016,T,96009609,tamil,9,MSC
43,testdriver,t,testdriver8s@taximobility.com,india,qwerty,1668D6E0-FBC2-438B-B5F0-32040DB39BFE,2,2,960096010,Male,0000-00-00,T,96009608,"Tamil,English",4,MSC
44,Mahesh,Sasane,mahesh.sasane71@gmail.com,"24/L, Room NO 11, M M Colony, N M Joshi Marg, Lower Parel , Mumbai - 400013",qwikdryver,,0,2,9769644962,Male,15-10-1971,T,MH 01 20080020118,"Marathi, English, Hindi",23,5th Std
45,Sunil P,Patil,sunil777patil@gmail.com,"Dahisar Via - Manor, Near Govr Hospital, Taluka - Palghar, District - Thane",qwikdryver,,0,2,9765776128,Male,10-06-1993,T,MH 48 20120027503,"Hindi, Marathi",4,HSC
46,testdriver20,karthick,karthikrajan.p@ndot.in,India,qwerty,605468EB-DB9F-4C75-B2E9-20A988A81255,2,2,9791964243,Male,13-01-1998,T,9791964243,"Tamil,English",4,BE
47,Ashraf,Patel,ashrafpatel@qwikdryver.com,"Room No 503, New",qwikdryver,42d4fc5199e68cbe,1,2,8433653635,Male,11-03-2016,T,MH02-20140048147,"English, Hindi,",5,HSC
48,Raja,Driver raj,globalkirankumar@gmail.com,"Anthiyur, Erode(",12345678,9f4898aaa525e246,1,3,9901206631,Male,06-04-2016,T,123434,"Tamil, Kannada,E",5,B.E
49,Kailas,Kadam,kailasrajkadam@gmail.com,"Room no 4, Shimgi Bai Chawl, Andheri-Kurla Road, Safed Pool, Sakinaka, Mumbai",qwikdryver,,0,2,7506761115,Male,01-01-1988,T,MH 11 20070002519,"Hindi, Marathi, English",10,SSC
50,Qwikdryver,,info@qwikdryver.com,TEST,qwikdryver,66f6b22de4d10b40,1,2,9619728423,Male,12-07-2016,A,TEST,"English, Hindi,",5,TEST
51,Manish,Shukla,manishshuklaqwikdryver@gmail.com,"Sheetal baug, Sheetal Nagar, 64 Ground Floor, Walkeshwar Road, Mumbai - 400006",manishshukla,15e370e0de56f567,1,2,9220045005,Male,17-02-1977,T,MH 01 20090095495,"Marathi, Hindi, Gujrati, English",15,SSC
52,Franko,Arokiaswamy,franko8108@gmail.com,"R/224, New Dhobi Ghat, Captain Prakash Pethe Marg, Cuffe Parade, Colaba, Mumbai - 400005",qwikdryver,,0,2,8879839520,Male,07-11-1994,T,MH 01 20130004307,"English, Hindi, Marathi, Tamil",2,TY B Com
53,Mohammed,Shaikh,shaguftashaikh2720@gmail.com,"153 Veer Savarkar Nagar, Near Amir Baug, P Thorat Road, Chembur (West), Mumbai - 400089",qwikdryver,3b1447c469da0701,1,2,9987278231,Male,22-11-1974,T,MH 03 20070018357,"Hindi, Marathi, English, Arabic",15,8th Standard
54,Ravindra,,rkale923@gmail.com,20 Tenements 2nd,qwikdryver,,0,2,9029027315,Male,10-03-2016,T,MH 01 20120000285,"Marathi, Hindi, ",3,HSC
55,Imran,Khan,imrankhanpbh9388@gmail.com,"Markandeshwar Nagar, Opposite Atria Mall, Worli, Mumbai - 18",qwikdryver,eed75acc961d368f,1,2,9987049388,Male,09-03-1988,T,MH 03 20100032239,"Hindi, Urdu, English",7,HSC
56,Sameer,Kolhe,sameerkolhe42@yahoo.in,193 Ratan Mahal 2/69 LJ Road Near Citylight Cinema Mahim Mumbai 16,qwikdryver,,0,2,9022314316,Male,27-02-1975,T,MH 01 9744026,"Hindi, Marathi, English",12,B Com
57,Anand,Sonar,an.sor66@gmail.com,"12/B, Jari Mari Darshan Building, Worli Hill Road, Opposite Jari Mari Mandir, Worli, Mumbai 18",qwikdryver,,0,2,7303396401,Male,02-04-1983,T,MH 01 20110055907,"Marathi, Hindi, English",15,SSC
58,Prashant,Shendge,prashantshendge86@gmail.com,"119/5, the swadeshi mill, new compund chwal, V.N Purav Marg, Sion Chunnabhatti",qwikdryver,a2b45add9c33acfd,1,2,9619781423,Male,29-09-1986,T,MH0320090059802,"Hindi, English, Marathi",9 Years,SSC
59,Santosh ,V Shetye,santoshshetye1982@gmail.com,"6B, 306, Shivneri Bldg, New Mahada, Janakalyan Nagar, Malvani Malad, Mumbai 400095",qwikdryver,aa7fd17e92300f85,1,2,9870547333,Male,17-01-1982,T,MH0220110033286,"Hindi, English, Marathi",16,10th Pass
60,Shantesh,Kulkarni,kulkarnishantesh@gmail.com,"D-15/7, Dudhsagar CHS, Ciba Road, Goregoan East, Mumbai 65",skmamtashiven,,0,2,9619889610,Male,13-05-1978,T,MH 02 20080023525,"English, Hindi, Marathi",15,SSC
61,Taj Mohammad,Khan,taj.khan572@gmail.com,"C-02, Town Palace CHS Ltd, Geeta Nagar, Mira Road, Behind Old Petrol Pump, Mira Road",qwikdryver,,0,2,8355953366,Male,31-07-1953,T,MH 01 20110011212,"Hindi, Marathi, Gujrati, Arabic, English",20,SSC
62,Rafique,Shaikh,malikashaikh2014@gmail.com,"Room no 488, Mahim Bus Depot, Mahim Mori Road, Behind Andhra Bank, C/O Barkat Tea Stall, Mahim, Mumbai - 16",qwikdryver,,0,2,7715812684,Male,18-10-1973,T,MH 01 19930038582,"Hindi, Marathi, English, Urdu",18,8th Standard
63,Prannoy,Das,dasprannoy@yahoo.com,MH 04 20130000097,qwikdryver,e412dc08d8af5cef,1,2,9967453308,Male,05-12-1990,T,MH 04 20130000097,"English, Hindi, Marathi, Bengali",7,MBA
64,Ilyas,Akbar,ilyasshaikh@gmail.com,"SHAM SHUDDIN COMPOUND, GALA NO 19, JARI MARI, KURLA ANDHERI ROAD, KURLA, MUMBAI - 72",qwikdryver,115b5bd30fbc4417,1,2,9029131986,Male,21-05-1987,T,MH0320070000496,"Hindi, English, Marathi",7,SSC
65,Vaibhav,Shirodkar,shirodkarvs85@gmail.com,Vaitarana CHS C-23 0/4 Sector 15 Airoli Navi Mumbai,zuver123,ba652bf1a7eef8f1,1,2,9833121218,Male,09-04-1985,T,MH 43 20100016831,Marathi Hindi English,9,HSC
66,Murtuza,,Murtuza@zuver.in,"Room No 129, B w",qwikdryver,e247d05c0e2ae6f7,1,2,9870520011,Male,06-04-2016,T,MH0120090095317,"English, Hindi, ",9,Graduate
67,Kishor,Sawant,Sawantkishor1617@gmail.com,"Sagar Building,",qwikdryver,487a1f5accb5bb0,1,2,9867198631,Male,27-07-2016,A,MH0519990012128,"Marathi, English",12 Years,HSC
68,Sameer,Kolhe,Sameerkolhe42@gmail.com,"193, Ratan Mahal, 2nd Floor, Room No 69, L J Road, Matunga West, Mumbai : 400016",qwikdryver,,0,2,9699803901,Male,27-02-1975,T,MH019744026,"English, Hindi, Marathi",9 Years,B Com
69,Noor,,Ss832973@gmail.com,2/3 Heerabai Cha,qwikdryver,,0,2,9870726611,Male,30-05-1981,A,MH0120100080463,"Hindi, English",12 Years,SSC
70,Raju,Sudam Hiwale,hiwale1973@gmail.com,"A/130 Dr Ambedkar Nagar, Rahivasi sangh, MC Chagla Road, Near Sahara Hotel, Vileparle East, Mumbai : 400099",qwikdryver,d56d9fbc2f1b33e5,1,2,9172946146,Male,16-08-1973,T,MH0220080240006,"Marathi, English, Hindi",14 Years,HSC
71,Vishal,Gamre,vgamre1@gmail.com,"Amey Society, 3rd Floor, Room no - 302, Dutta Nagar, Nalasopara East",zuver12345,8a2cff8f1f6b1436,1,2,7040585623,Male,24-10-1990,A,MH 02 20120013853,"Marathi, HIndi, Gujrati, English",4,HSC
72,Hanif,Shaikh,hanifkanar@yahoo.com,"Building No 9, Flat No 1, A-Wing, Jasmine Mill Road, Shahu Nagar, Opposite Ghasitram Halwai, Mahim East, Mumbai - 17",zuver123,1ecc625ba9a67f69,1,2,7738338366,Male,03-11-1950,T,MH 01 20090008639,"Urdu, Hindi, Marathi, Gujrati, English, Arabic",40,SSC
73,Kishor,Solanki,solankikishor59@gmail.com,"C-301, Vrindavan Society, Old Nagardas Road, Mogara Pada, Andheri East, Mumbai - 69",zuver123,4c9752983e2ebf5c,1,2,9820519785,Male,06-10-1970,T,MH 02 20070060418,"Hindi, Marathi, Gujrati",22,SSC
74,Sabeer,Patel,patelsabeer@gmail.com,"Room no 18, Building No Q, Best Staff Colony, Near Pakiza Hotel, Chunabhatti, Santacruz West, Mumbai - 54",zuver123,,0,2,8433783307,Male,29-09-1986,T,MH 02 20073015054,"English, Hindi, Marathi",12,SSC
75,John,,lewis.john1971@gmail.com,"C 7, Shanti Laya",qwikdryver,5149394ef780836d,1,2,8286161032,Male,15-04-2016,T,MH029135201W,"English, Hindi, ",24 Years,SSC
76,Vishal S,Shivkar,Vishalshivkar929@gmail.com,"Room No 30, Roshan Nagar, Zopadpatti Sangh, Cama Road, Near Wahid Lala Garage, Andheri West, Mumbai : 400058",qwikdryver,78ba61efe95f5657,1,2,8691952801,Male,03-08-1984,T,MH0220130045026,"English, Hindi, Marathi",12 Years,7th Std
77,Hanuman,Singh,hanumans812@gmail.com,"Room no 13, Chawl No 3, Budhwar Park, Fisherman Colony, Cuffe Parade, Mumbai - 5",zuver123,8c9ba75d78815557,1,2,9619103148,Male,07-07-1964,T,80/c/32843,"Hindi, English, Mararthi, Telugu, Gujrati",34,9th Std
78,Alex,Nadar,alex@jasmaze.in,"Flat no 2, Coli",zuver123,d293a082e1511dbf,1,2,9768336976,Male,22-06-2016,T,MH 01 20130041023,"English, Hindi,",5,Diploma
79,Jairaj,Sawant,jairajsawant1234@gmail.com,"Room No 4, Kedar Chawl No 2 , Ashok Nagar, Marol Pipeline, Andheri East, Mumbai - 59",zuver123,,0,2,9867868522,Male,22-05-1982,A,MH 02 20090024605,"English, Hindi, Marathi",12,SSC
80,Sandeep,Bhatt,sk9980221@gmail.com,"Nath Krupa CHS, Veer Sawarkar Nagar, Thane",zuver123,20fd83e6521a9c2c,1,2,8898165337,Male,13-10-1967,T,MH 04 20110016618,"English, Hundi, Marathi",12,Graduate
81,Rupesh,Patil,patilrupesh1982@gmail.com,"Shivneri Chawl, Room no 9, Vashi-Belapur Road, Digha, Navi Mumbai",zuver123,,0,2,7506475929,Male,31-01-1982,T,MH 02 20070136170,"English, Hindi, Marathi",15,HSC
82,Sajid,,sajid766bhai@gmail.com,26 Janata Colony,zuver123,ae8ac8ae76f84b4a,1,2,7666655399,Male,12-07-2016,T,MH0220090107800,"Hindi, English",5 Years,SSC
83,Yusuf,Shaikh,shaikhy406@gmail.com,"Room no 5, Rafuddin Chawl, Pathan Tabela, P.N. Road, Bhandup West, Mumbai - 78",zuver123,6d042df22f4f7304,1,2,7506415373,Male,28-03-1986,T,MH 03 20090060961,"English, Hindi, Marathi",7,SSC
84,Bholu,Ahmed,bholuahmad007@gmail.com,"Room nom2/A, Behind BMC Chawl no 5, Slaughter House Compound, S.V. Road, Bandra West, Mumbai - 50",zuver123,6cf168108819b084,1,2,9619871974,Male,15-01-1962,T,MH 02 19820023824,"Urdu, Hindi",35,9th Standard
85,Javed,Shaikh,javedshaikh1234@gmail.com,"104, Ruhina Apartment, Sharifa Road, Amrut Nagar, Mumbra, Thane",zuver123,,0,2,7045194923,Male,27-07-1987,T,MH 04 20150022324,"Hindi, English, Urdu",4,SSC
86,Shoaib,Khan,sk0402697@gmail.com,"Room no 7, Anjuman Chawl, Near St Lawrents High School, Marol Maroshi Road, Andheri East, Mumbai - 59",zuver123,a291dfbbc3ae5b79,1,2,8655496276,Male,16-02-1993,T,MH 02 20130055901,"Hindi, Urdu, English",10,Diploma
87,Manish,Tiwari,manishtiwari01234@gmail.com,"Mahnagar Palika Vasahat, Dindoshi, Gen AKV Marg, Goregoan East, Mumbai - 65",zuver123,c96a71c563e5205d,1,2,7738129316,Male,01-01-1986,T,MH 02 20100103015,"Hindi, English, Mararhi, Panjabi, Gujrati",7,Graduate
88,Mohammad Ayaz,Ayaz,turya.anjaria@gmail.com,Sattarkhan Compo,zuver123,,0,2,9987445555,Male,29-04-2016,T,MH 03 20080008547,"English, Hindi,",25,SSC
89,Santosh,Lodhe,slsantoshlodhe@gmail.com,"DMD 135, Ground Floor, Tulsiwadi Zopadpatti, Tulsiwadi Road, Near Race Course, Tardeo, Mumbai - 34",zuver123,904f71797d5e4cf8,1,2,9167287815,Male,01-10-1988,T,MH 02 20090176970,"Hindi, English, Marathi",7,SSC
90,Nitin,Dolas,nitin.dolas357@gmail.com,"Ground Floor, Room no 911/912, Ganesh Nagar, C Com, J R Boricha Marg, Satrasta, Mumbai",zuver123,,0,2,9821028287,Male,15-06-1987,T,MH 01 20080015973,"English, Hindi, Marathi",7,SSC
91,George,Paul,65topaul@gmail.com,"B-22, 864 Omkareshwar CHS, Charkop, Sector 8, Kandivali West",zuver123,,0,2,9892028360,Male,05-09-1952,T,MH 02 20100092944,"English, Hindi, Marathi, Tamil, Kannada, Malayalam, Konkani, Arabic",20,SSC
92,Balaganeshan,Nadar,balaganeshannadar@gmail.com,"A/19, Kaveri CHS, Mukund Nagar,Dharavi, Mumbai - 17",zuver123,34f2ce80a4d2cebc,1,2,9323842754,Male,13-06-1966,T,MH 01 19870045724,"Hindi, Tamil",25,SSC
93,Adil,Shah,everyonesheart@gmail.com,"Room No : 19, Chandni Agar, Salt Pan Road, Wadala, Antophill, Mumbai : 400037",zuver123,b6edbb9fad2a329c,1,2,9920269263,Male,08-10-1980,T,MH0219930048928,"English, Hindi, Marathi",15 Years,HSC
94,Vishal N,,natevishal888@yahoo.com,29/33 Jagat Smru,zuver123,,0,2,9892171131,Male,19-06-2016,T,MH019565410,"English, Hindi, ",20 Years,HSC
95,Mustufa Chandorwala,Chandorwala,musfar752@gmail.com,"C - 23, Plot NO D-27, Saify Park Colony, Marol, Andherii East, Mumbai - 59",zuver123,b3fc5c169df6f8fa,1,2,9819099573,Male,04-04-1980,T,MH 02 20000039502,"English, Hindi, Gujrati",8,HSC
96,Amit,Kharat,kharatamit14338@gmail.com,"Flat no B - 006, New Shivangi CHS Ltd, SHeetal Nagar, Near Evershine Complex, Mira Road East, Thane",zuver123,1e79b2a46fcf4d60,1,2,9920985342,Male,31-10-1986,T,MH 01 20080004687,"English, Hindi, Marathi, Arabic, Hyderabadi",10,HSC
97,Sachin,Gharat,sachingharat2011.sg@gmail.com,"D/404, D Wing, Shivdarshan CHS, Jivba Atamaram Raul Marg, Off Sayani Road, Khedgalli, Prabhadevi",zuver123,,0,2,9819648022,Male,24-09-1975,A,MH 01 19940016416,"Hindi, Marathi",20,HSC
98,Abhijeet,Gonate,abhijeetgonte22@yahoo.in,"G 3, Mahipat Yadav Seth Chawl, Opposite Roopam Apartment, New Hall Road, Kurla West, Mumbai - 70",zuver123,eb27981e9376d289,1,2,8097795780,Male,22-05-1987,T,MH 03 200718150,"Englis, Hindi, Marathi",10,SSC
99,Tausif,Kazi,tauseefkazi61@gmail.com,"Imambada Chawl, Gaibanshah Dargah Road, Narayan Nagar, Ghatkopar West, Mumbai - 86",zuver123,7cc05cb6623df36d,1,2,9833799267,Male,20-03-1984,T,MH 03 20080024348,Hindi,7,9th Standard
100,Ilyas,Shaikh,ilyasshaikh2016@gmail.com,"Sham Shuddin Compound, Gala No 19, Jari Mari, K.A. Road, Kurla, Mumbai - 72",zuver123,115b5bd30fbc4417,1,2,8879578679,Male,21-05-1987,T,MH 03 20070000496,"English, Hindi, Marathi",7,SSC
101,Akbar,Shaikh,akbarshk@yahoo.com,"B 401, 4th Floor, Nilkamal building, 60 Feet Road, Matunga East, Mumbai - 17",zuver123,121f4343169394e0,1,2,8286329680,Male,29-03-1978,T,MH 01 991275,"English, HIndi, Marathi, Tamil, Urdu",15,Graduate
102,Akbar,Shaikh,akbarshaikh@gmail.com,"B 401, 4th Floor, Nilkamal Building, 60 Feet Road, Matunga East, Mumbai - 17",zuver123,75ea04f0988e5eca,1,2,8286329681,Male,29-03-1978,T,MH 01 991275,"Englis, Hindi, Marathi, Urdu, Tamil",15,Graduate
103,Najrul,Ahmed,najrulahmed@gmail.com,"Ground Floor, Room no 14, Maniyar Building, 116/118, P.D'Mello Road, Mumbai - 9",zuver123,,0,2,9004220464,Male,05-07-1970,T,MH 02 20090135924,Hindi,15,8th Standard
104,Shafique,Ahmed,ammadshafique163@gmail.com,"Lambi Cement Chawl, 2nd Floor, Room no 133, Byculla Station Road, Mumbai - 11",zuver123,a23d0035da300c98,1,2,8451813237,Male,16-03-1963,T,MH 01 19840022747,"Urdu, Hindi, English, Marathi, Arabic",31,SSC
105,Lavkesh,Pandey,lavkeshmahendrapandey@gmail.com,"E - 30, Samata Chawl, Gokul Nagar, Akurli Road, Kandvali East, Mumbai - 101",zuver123,,0,2,9029441716,Male,06-07-1987,A,MH 02 20080007421,Hindi,10,SSC
106,Schuman,Chakravarti,schuman.sc64@gmail.com,"Sanjay Villa, Patilwadi, Old Ferry Road, Behind Mudh Church, Gate No 4, Mudh Island, Malad West, Mumbai - 61",zuver123,aa4d82eda165264d,1,2,9594601924,Male,14-06-1964,T,MH 04 20090034824,"English, Hindi, Bengali, Marathi",20,Graduate
107,Sarfaraz,Khan,sarfarazkhan@gmail.com,"Room no 1603. D - Wing, Poonam Estate, Cluster - 3, Srishti Complex, Opposite Surya ShoppingCenter, Mira Road East",zuver123,,0,2,9702785687,Male,18-11-1959,T,MH 01 20100127451,"Hindi, Urdu",30,8th Standard
108,Shivkumar,Gupta,skgupta2006@rediffmail.com,"Room no 5/B, 1st Floor, Sriram Rahiwasi Sangh Chawl, Behind Ram Mandir, Near Malvani Church, Marvey Road, Malad West, Mumbai - 95",zuver123,a01ec8fd38d47cc3,1,2,7208068124,Male,30-11-1980,T,MH 02 2003 C 27089,"Hindi, English, Marathi, Bhojpuri",15,Diploma Automobiles
109,Imran Khan,Khan,ikhan14321@gmail.com,"3rd Floor, KGN Building, Opposite Ajwa Sweets, Dongri, Sandhurst Road, MUmbai",zuver123,,0,2,8390880559,Male,30-04-1993,T,MH 08 20110010728,"Hindi, Marathi, English",3,HSC
110,Tejprakash,Gaur,tejgaur431@gmail.com,"Building no 11, Flat no 22, Asmita Jyoti CHS, Junction of Marve & Charkop Road, Beside Atharv College, Malad West, Mumbai - 96",zuver123,5ec96c858a90d2ed,1,2,9320528611,Male,06-10-1976,T,MH 02 20120013134,"Hindi, English, Marathi, Marwadi, Gujrati",15,Graduate
111,Vijay,Vazirani,vijayvazirani@ymail.com,"A-6, 1303, Hyde Park, Plot no 8,9,10, Sector 35 G, Kharghar, Navi Mumbai - 410210",vijay8080,d30a9846efa6f83d,1,2,8419978934,Male,02-02-1974,T,MH 03 20100043171,"English, Hindi, SIndhi, Marathi, Arabic",22,HSC
112,Ashok,Gosai,ashokgosai88@gmail.com,"Room no 101, Next to Maruti Jewellers, Backbay Depot, Ambedkar Nagar, Cuffe Parade, Coloba",zuver123,,0,2,8976091578,Male,08-08-1965,T,MH 01 20090044228,"Hindi, Marathi, English, Gujrati, Arabic",29,SSC
113,Ashish,Gaikwad,ashishgaikwad340@gmail.com,"3 Asalpha Village, Bhim Nagar, N S Road, Ghatkopar Andheri Link Road, Ghatkopar West,",zuver123,a6b32b8f7e9c8d96,1,2,9821382379,Male,29-06-1984,T,MH 01 28631,"English, Hindi, Marathi",8,SSC
114,Dinesh,Gaikwad,arati.gaikwad1512@gmail.com,"Jiveshwar Building, Room no 5, Ground Floor, Ganeshwadi, Opposite to Bal Vikas School, Dattawadi, Badalapur East - 421503",zuver123,,0,2,8767516744,Male,12-11-1990,T,MH 04 20140041391,"English, Marathi, Hindi",9,SSC
115,Javed,Khan,javedbaig687@gmail.com,"Room no 8, Sharifa Chawl, LBS Marg, Near Amrut Nagar, Ghatkopar West, Mumbai - 86",zuver123,efb8fa08b53bc961,1,2,7045224134,Male,30-10-1977,T,MH 01 20100056489,"English, Hindi, Marathi, Arabic",14,HSC
116,Sufiyan,Shaikh,sufiyan98212@gmail.com,"Room no 414, Kishan Doodhwaala Chawl, Cama Road, Goandevi, Dongri, Andheri West, Mumbai - 58",zuver1990,9a101383eca951a6,1,2,8898262223,Male,23-10-1990,T,MH 02 20100126157,"Hindi, Urdu",3,SSC
117,Chandraprakash,Yadav,prakashy2013@gmail.com,"Sharawati Society, Plot No 8, Building no 2, Room no B-4, J.A.K. Vaidya Road, Near Niwara School, Goregoan East, Mumbai - 65",zuver123,,0,2,9619911247,Male,10-07-1991,T,MH 02 20110061433,"Hindi, Marathi",5,HSC
118,Anju,,anjujadhav7892@gmail.com,"Datta Nagar, Mar",zuver123,fa2acb7918687247,1,2,9833063128,Male,21-05-2016,T,KA 33 20120001108,"Hindi, Kannada",3,SSC
119,Naeem ,Abdul Shaikh,abdulabdul282@gmail.com,"Room No 720, Vijay Nagar, Zhopadpatti, R C Marg, Chembur, Mumbaii : 400074",zuver123,,0,2,9870272726,Male,27-02-1983,T,MH0320070009618,"English, Hindi, Marathi",10 Years,SSC
120,Muzzammil,Moosa,hmoosa653@gmail.com,"16 Syed Mukhri Street, Sai Chambers, Ground Floor, Room No 1, Mumbai 400009",zuver123,efaa4402290ef2d0,1,2,9967882396,Male,13-08-1973,T,MH0120030063552,"English, Hindi, Marathi, Arabic, Urdu",17 Years,HSC
121,Yogesh,Pawar,yogeshpawar5886@gmail.com,"259/15 Nirmal CHS, Sector 2, Charkop, Kandivali West, Mumbai - 67",zuver123,d2e77457b22a606c,1,2,9773292622,Male,30-05-1991,T,MH 02 20090171669,"English, Hindi, Marathi",6,ITI
122,Vivek,,vivekg9858@gmail.com,"Room no 17, Nira",zuver123,b05e9d91f6fde52b,1,2,8652671859,Male,29-05-2016,T,MH 02 20150007566,"English, Hindi",5,SSC
123,Nazrul,Ahmed,nazrulahmed097@gmail.com,"Ground Floor, Room no 14, Maniyar Building, 116/118, P D'Mello Road, Mumbai - 9",zuver123,,0,2,9594729978,Male,05-07-1970,T,MH 02 20090135924,Hindi,20,7th Standard
124,Abhijeet,Gonate,abhijeetgonate22@yahoo.in,"New All Road, Mahipat Yadav Seth Chawl, Room no 2, Opposite Roopam Apartment, lhav Pool, Kurla West, Mumbai - 7",zuver123,,0,2,9930512144,Male,22-05-1987,T,MH 03 200718510,"English, Hindi, Marathi",10,SSC
125,Mustafa Nalasopara,Nettarwala,mnettarwala@gmail.com,"Room No 311, Sweta Colony, Shadi Compond, Near Gurudwara, Achole Road, Nalasopara East, Palghar : 401209",zuver123,92cb4dbffb0a3f79,1,2,9702153872,Male,07-12-1970,T,MH0220130078621,"Hindi, English, Mararhi, Panjabi, Gujrati",5 Years,SSC
126,Yusuf Shaikh,Shaikh,yusufshaikh0786@gmail.com,"BIT Chawl No 1, 2nd Floor, Room No 81, Ebrahim Rehmatulla Road, Mumbai 400003",zuver123,efc2be69557b4638,1,2,9892421577,Male,26-05-1986,T,MH0120100103707,"English, Hindi, Marathi",5 Years,SSC
127,Kishor,Waghmare,kishorwaghmare1990@gmail.com,"Ana Bhau Sathe Nagar, Jijabai Bhosale Marg, Om Namah Shivay Chawl, Ghatkopar Chembur Link Road, Govandi, Mumbai - 43",zuver123,,0,2,9561014148,Male,04-05-1990,T,MH 23 20080003005,"Hindi, Marathi",5,HSC
128,Anto,Alappadan,antosjoseph9@gmail.com,"Plot no 75, Room no 155, 1st Floor, Sai Krupa CHS, Sector 1, Ghansoli, Near Rajendra Ashram",zuver123,6f5e29966309ae36,1,2,9920554127,Male,21-02-1976,A,MH 01 19950045324,"English, Hindi, Malayalam",20,Graduation
129,Munna,Shaikh,munnashaikh38@gmail.com,"Room no 33 C, Gate no 18, Behram Nagar, Pada, Bandra East, Mumbai - 51",zuver123,b5316e4aa2700daf,1,2,7208844457,Male,14-03-1976,T,MH 02 20070052161,"Urdu, Hindi",15,7th Standard
130,Ozee,Fernandes,ozeefernandesqd@gmail.com,"R 519, Sainath Zopadpatti, S.M. Road, Antop Hill, Mumbai - 37",zuver123,b45540a6a5647c8e,1,2,9920658070,Male,22-05-1969,T,MH 01 20100050683,"English, Hindi, Marathi, Arabic, Kannada, Tullu",16,9th Statndard
131,Simon,Fernandes,speedsimon3@gmail.com,"3/202 B I T Chawl , 2nd Floor, Love Lane, Mazagaon",zuver123,8e8602a602a7184d,1,2,8286152913,Male,12-03-1985,T,MH0120040004715,"English, Hindi, Marathi",7 Years,HSC
132,Gurunath,Dharmalu,gurud8229@gmail.com,"1/108, A-Wing, Sai Suman Apartment, Near Amardeep Colony, Pisavali, Kalyan East, District - Kalyana",zuver123,,0,2,9029002439,Male,07-08-1982,T,MH 05 20045001058,"Hindi, Marathi",10,7th Standard
133,Rashid,Shaikh,rashidshaikh32148@gmail.com,"Room no 2, Mansuri Chawl, Khan Galli, Gandhi Nagar Petrol Pump waali Galli, Link Road, Kandivali West, Mumbai - 67",zuver123,511219977565d12a,1,2,9702989588,Male,01-02-1983,T,MH 02 20100092566,"English, Hindi, Marathi",7,11th Standard
134,Sayed,Shakil,sayedshakil@hotmail.com,"18th Water Streer, Lucky Compound, Building no 6, Room no 7, Behind Khatav Mill, Byculla West, Mumbai - 11",zuver123,,0,2,9867792808,Male,04-09-1984,T,MH 01 20030047127,"English, Hindi, Urdu",12,SSC
135,Manikanta,SN,manikantanagabhushan@gmail.com,Bangalore,zuver123,5ce4f442af6df1b5,1,33,9035289288,Male,31-12-1997,A,KA0520160010189,"English, Kannada, Hindi",4,SSLC
136,James,Raj,reach4james@gmail.com,Bangalore,zuver123,13863a653c617dc8,1,33,919916949078,Male,10-09-1988,A,KA5320060011744,"English, Kannada",9,SSLC
137,Anto,Sudeep,antosudeep@gmail.com,Bangalore,zuver123,17b7fee48795df60,1,33,8792507302,Male,04-07-1990,A,KA5520140007739,"English, Kannada, Hindi, Tamil",3,PUC
138,Gangadhar,Ganjal,abhaycinemavisions@gmail.com,Bangalore,zuver123,c7a9bbbff4a55752,1,33,9538295955,Male,08-06-2016,A,KA2519950081187,"English, Kannada",19,SSLC
139,Somanath,Ponnuswamy,soma9741264621@gmail.com,Bangalore,zuver123,69d26ea415a49c3,1,33,9741264621,Male,01-03-1976,A,KA0420040014525,"English, Kannada, Tamil, Telagu",10,7th Std
140,Anand,D,walk2anandwildspark@gmail.com,Bangalore,zuver123,d3c236a03c14aea9,1,33,8553333438,Male,28-02-1989,A,KA0420110013573,"English, Kannada, Tamil, Telagu",6,Civil DIploma
141,Chethan,,chethaninks@gmail.com,Bangalore,zuver123,768b8e3a5b040c57,1,33,9742358816,Male,16-06-2016,A,KA0520130016776,"English, Kannada",7,BA
142,Preston,Aden,preston.aden1@gmail.com,Bangalore,zuver123,,0,33,9553977928,Male,23-09-1963,A,KA0319870001688,"English, Kannada, Tamil, Telagu, Hindi",30,5th STD
143,Rashid,A,rashidbinazeez556@gmail.com,Bangalore,zuver123,,0,33,9497440402,Male,17-07-1993,T,46/6966/2012,"English,Hindi,Tamil,Kannada",4,BCA
144,Lawrance,Anandraj,leonlawson2212@gmail.com,Bangalore,zuver123,ee0963617b47a157,1,33,9738488121,Male,03-03-1981,A,TN07Z2001/0002161,"English, Kannda, Hindi, Tamil",16,PGDCA
145,Mahendhar,,mahendar.kulbi@gmail.com,Bangalore,zuver123,903ac901dffbbc72,1,33,9632568015,Male,15-06-2016,A,KA01 20110009784,"English, Kannda,",NA,PUC
146,RAJENDRA K C,,rajendrar337@gmail.com,Bangalore.,zuver123,c4ab89d3ebed054e,1,33,9945814612,Male,17-06-2016,A,KA4220150009125,"English,kannada,",10 years,SSLC
147,Shiva,,shivukb1600@gmail.com,Bangalore.,zuver123,a7defe1c53b4934d,1,33,9972809877,Male,16-06-2016,A,KA3320060005943,"Kannada, Hindi, ",10 years,SSLC
148,Ramesh,,rammyyash1@gmail.com,Bangalore.,zuver123,,0,33,9844304024,Male,29-06-2016,A,KA0220050007851,"Kannada, Hindi, ",10 years,SSLC
149,VIKRANTH,SHANKARE NAIK,ragavavikkul@gmail.com,Bangalore,zuver123,,0,33,9663858035,Male,01-06-1992,A,KA41201330008634,"English,Hindi,Tamil,Kannada",04 years,Degree B.A
150,K.Pradeep kumar,,royalcivil.pradeep@gmail.com,Bangalore,zuver123,67ceff666f69d5d5,1,33,9449458719,Male,16-06-2016,A,AP/0220/20011429,"English,Hindi,Ta",7 years,B Tech
151,Raja,,rajasegarkraj@rocketmail.com,Bangalore,zuver123,872262a40262cf56,1,33,8867188733,Male,09-07-2016,A,KA03 20140008049,"Kannda, Hindi, T",19 years,SSLC
153,Manju,Test,zeeshan@englandmail.com,Banaglore,zuver123,,0,33,9108160308,Male,01-06-1998,T,717817118,jdhdhjj,3,ahdlkhdlk
154,Praveen,Gowda,gowdapraveen1988@gmail.com,Bangalore,zuver123,461172d7ea131b55,1,33,9886918776,Male,30-06-1988,A,KA36 20091003457,"Kannda, Hindi, Telgu",10,9th
155,Nibumon,U,niburadhi@gmail.com,Bangalore,zuver123,,0,33,7760053142,Male,08-08-1982,A,KA02 11941 200102,"kannada, Malyalam, Tamil, English, Hindi",15,Diploma
156,1213213,323232,zuvertes2t@mailinator.com,efewff,qwerty,,0,2,9535502374,Male,04-06-1998,T,123456,hindi,5,BE
157,VUPPULURI SUBBA,RAO,baalasubbaa.rao@gmail.com,BANGALORE.,zuver123,,0,33,7026036305,Male,02-02-1959,A,LMV 11/03/2013 TN11,"English,Hindi,Malayalam,Tamil,Kannada",30 years,M A .
158,N J  VIJAY ,,vijaychandran9@gmail.com,Bangalore,zuver123,,0,33,9880657455,Male,08-09-1974,A,1282/95,"English,Hindi,Ta",21 years,Diploma in Electrical
159,RAMESH Y,GOWDA,rameshyg1971@gmail.com,Bangalore.,zuver123,,0,33,7411992499,Male,24-05-1971,A,MH0820090004255,"Hindi,Kannada,Marathi,English.",08 years,8th std.
160,CHAYASHREE J,JANAPPA,chayashree007@gmail.com,Bangalore.,zuver123,,0,33,8867556404,Female,23-06-1990,A,KA0320150022759,"English,Hindi,Tamil,Kannada,Telugu",01 year,II PUC
161, UMA G,GOPALAKRISHNA.H.N,imuma01@gmail.com,Bangalore.,zuver123,,0,33,9738285060,Female,05-07-1984,A,KA0720120003299,"English,Hindi,Tamil,Kannada,Telugu",01 year,SSLC
162,SRIDHAR,,sridhar.shikshanamitra@gmail.com,Bangalore,zuver123,c90e8907de39faaf,1,33,9886824956,Male,21-06-2016,A,KA4120150014317,"English,kannada,",02 years,II PUC
163,VENKATACHALA,R,manjufeb14@gmail.com,Bangalore.,zuver123,,0,33,9035529736,Male,10-06-1978,A,KA0520090023522,"English,Hindi,Tamil,Kannada,Telugu",10 years,B.A
166,Simon,Fernandes,simonspeed3@gmail.com,"3/202 B I T Chawl , 2nd Floor, Love Lane, Mazagaon",zuver123,bde09e72b7bcb09f,1,2,8286152912,Male,12-03-1985,T,MH 01 20040004715,"English, Hindi, Marathi",7,HSC
167,Rajaneesh,,rajaneeshraj005@gmail.com,Bangalore,zuver123,5c6ef596c9fe5fac,1,33,7411267031,Male,05-07-2016,A,KA1320150007185,"Kannada, English",NA,diploma
168,Ravi,P,ravip8045@gmail.com,Bangalore,zuver123,438dfd3f55fbd51c,1,33,7353533939,Male,01-07-2016,A,KA0520010007468,"kannada, hindi,",NA,2 PUC
169,Sameer,,samershaikh123.ss@gmail.com,Bangalore,zuver123,d03d413d65165c54,1,33,9022410406,Male,26-06-2016,A,MH01 20100054529,"hindi, english",18 years,SSC
170,Satnam ,Singh,satnamrajputh@gmail.com,Bangalore,zuver123,,0,33,9886274585,Male,18-08-1997,A,ka0420150021919,"hindi, punjabi",10 years,9th std
174,Siddhesh,Thale,siddheshthale@gmail.com,"Room No 203, 2nd Floor, Gayatri Apartment, Talav Pali Road, Ghansoli, Navi Mumbai - 400701",zuver123,f8014fa735fa4d24,1,2,7387500719,Male,07-07-1989,T,MH 01 20090121268,"English, Hindi, Marathi, Konkani",8,HSC
175,Ashok,Kamble,ashok.kamble@outlook.com,"Room No 33 / 15, Ekta Chawl, Great Indira Nagar, Marol Pipe Line, Andheri East",zuver123,,0,2,7045282890,Male,08-01-1983,T,MH 02 20010016180,"English, Hindi, Marathi",10,Graduate
176,wlkjf,lfkj,sdlfkj@gmail.dom,wrfafafgv,qwerty,,0,33,98723837,Male,06-06-1979,T,313431,kannada,20,BE
177,Ashok,,garudaashok71@gmail.com,Bangalore,zuver123,a162ecea00da5315,1,33,9886205930,Male,30-06-2016,A,1145/200,"Kannada, hindi,",13 yrs,SSLC
178,Venkatesh,S,venkyraju70@gmail.com,Bangalore,zuver123,,0,33,9845278832,Male,01-04-1970,A,KA0319880001058,"Kannada, Telugu, Tamil, Hindi, English",25 yrs,B com
179,Vinod,Kumar K,imvinod1997@gmail.com,Bangalore,zuver123,,0,33,8970492013,Male,05-05-1997,A,KA5120150017840,"Kannada, Telugu, Hindi,",NA,"ITI, !st PUC"
180,Mohammed Shanawaz,Qureshi,shanawazqureshi128@gmail.com,"Room No 2, BIT Baithi Chawl No 2, Sydhnem Compound, I R Road, Near J J Hospital, Mumbai - 400003",zuver123,,0,2,8898524977,Male,17-02-1997,T,MH 01 20150016833,"English, Hindi, Mararthi",4,SSC
181,Chandrashekar,S,chandrasheka.s11@gmail.com,Bangalore,9738201494,,0,33,9738201494,Male,20-11-1972,A,Ka0519980002803,"Kannada, Telugu, Tamil, Hindi, English",12 yrs,SSLC
182,Rana,Biswas,ranabiswas385@gmail.com,Bangalore,zuver123,,0,33,9739004943,Male,25-10-1991,A,WB-9520130000812,"hindi, english",4 yrs,12th pass
183,Gaurav,Kumar N,gauravyogi59@gmail.com,bangalore,zuver123,,0,33,9481907285,Male,13-03-1992,A,KA0220150008402,"English, Hindi, Kannada, Tamil, marathi",One year with yellow badge,2ND PUC
184,Shanmugham,E. S,bsundaram4@gmail.cok,Bangalore,zuver123,,0,33,7795006657,Male,05-03-1963,A,KA0319930006627,"English, Hindi, Kannada, Tamil, Telugu",20 yrs,PUC
185,Prasad,G,prasadgrk2662@gmail.com,Bangalore,zuver123,,0,33,9844429564,Male,24-06-1993,A,AP50320140001371,"Kannada, Telugu, Tamil",4 yrs,2nd PUC
186,Irshad ,Ahmed Basheer,irshadahmed999@yahoo.com,Bangalore,zuver123,,0,33,9611000453,Male,28-01-1966,A,KA0119970006783,"Kannada, English, hindi",20 yrs,SSLC
187,Jagdish,Kadam,jagdishkadam2005@gmail.com,"Dongari Chawl, Irla Masj, Bhennd Mangal Jyot Lane, Andheri West",zuver123,,0,2,9702958400,Male,12-02-1981,A,MH0220000034354,hindi marathi englesh ,15 Years,SSC
188,Rohan,Kadge,rohankadge26@gmail.com,310 MAHALAXMI APPARTMENT PHOOL PADA VIRAR EAST,zuver123,,0,2,9987421268,Male,26-04-1988,A,MH0720130008537,"English, Hindi, Mararthi",5 Years,HSC ITI
189,Suhas,Mane,suhas94mane@gmail.com,"1/2 Tirupti Chawl, Garibacha Wada, Vishnu Nagar, Dombivalli 421202",zuver123,85991d2e3a59efb6,1,2,9594146094,Male,02-01-1989,T,MH0220080054192,"Marathi, English, Hindi",8 Years,SSC
190,Ibrahim,Shaikh,ibrahimshaikh49@gmail.com,"Islampura,Laxmibai Chawl, Chakala Sahar Road, Andheri East, Mumbai",zuver123,,0,2,8898344323,Male,20-04-1983,T,MH0220043012883,"Hindi, English, Tamil",11 Years,SSC
191,Aslam,Qureshi,Aslam461340@gmail.com,"Plot No 287, Transit Camp, Reclamation, Bandra West, Mumbai : 400052",zuver123,,0,2,9920874772,Male,12-09-1982,T,MH0220000038951,"English, Hindi, Mararthi, Gujrati, Urdu",12 Years,HSC
192,Ganesh,Nate,ganeshnate08@gmail.com,"Sai Baba Nagar, Gazdhar Bandh, S B Patil Marg, Opp Municipal School, 19th Road, Khar West, Mumbai : 400052",zuver123,,0,2,9029467249,Male,19-08-1985,T,MH0220061005024,"Marathi, English, Hindi",9 Years,SSC
193,Umesh Kolambekar,Kolambekar,kolambekarumesh888@gmail.com,"44 - B/12, Motiwala Building, Ground Floor, Bhau Todakar Marg, Elphiston Road (East), Mumbai 400013",zuver123,66c55feb82288960,1,2,8976042769,Male,15-02-1987,T,MH0120080054695,"Marathi, English, Hindi",8 Years,SSC
196,Fayyaz,Mohammed Khan,fayyazkhan919@gmail.com,"51 Aaisha Bal Chawl, 1st Floor, Room No 10, Mastan Tank Lane, Mumbai : 400008",zuver123,,0,2,9820025983,Male,29-07-1960,T,MH0120090110832,"Marathi, English, Hindi",25 Years,SSC
197,Shailendra,Mane,shailendramane1234@gmail.com,"3/19 Rangari Chawl, Dr B A Road, Kalachowki, Mumbai : 400033",zuver123,,0,2,8424854138,Male,26-09-1980,T,MH0120080006158,"Marathi, English, Hindi",8 Years,SSC
198,vinay,v,vinay@mailinator.com,2e2we,qwerty,b765ebf77db931c0,1,33,7842340343,Male,07-07-1998,A,sdsd,sdsd,sdsds,sdsfdsad
199,Prakash,G,shivaprakash170108@gmail.com,Bangalore,zuver123,c1dd0392335125f3,1,33,9886830548,Male,17-01-1984,A,19024/2002,"English, Hindi, Tamil,Kannada, Telugu",10 years,PUC
200,Mahesh Babu,R,maheshravilla1.mb@gmail.com,Bangalore,zuver123,,0,33,7090701825,Male,18-05-1994,A,AP10320130000277,"telugu,kannada, english",3years,degree
201,annu,y,ajay.sj597@gmail.com,edeeccdwce,123456,,0,2,8123938267,Male,01-07-1998,T,dcwc,cccde,eecec,dcdc
202,Kiran,C,kiran120697@gmail.com,Bangalore,zuver123,,0,33,7090901883,Male,12-06-1997,A,KA5120150024559,"Kannada, English, hindi",2 years,10th
203,KEVAL ,,kdkevaldevkar@gmail.com,"DEVKAR BUILDING,",7875467474,1fdd90f1b0b9e5e4,1,34,9762281414,Male,14-07-2016,A,MH1220120072678,"HINDI,MARATHI, E",5,GRADUATE
204,VIKAS,DHAGE,vikasdhage1982@gmail.com,"C/O PRAVEEN KAMBLE, BALEWADI PUNE",zuver@123,,0,34,8805555789,Male,18-02-1982,A,MH4420090000854,"HINDI,MARATHI",2,10
205,LAHU,LOKHANDE,lahu8000@gmail.com,"S.No 120,LANE NO. 14B,PAUD ROAD, KOTHRUD,PUNE-38",zuver@123,,0,34,9767916175,Male,06-06-1978,A,MH1219980019940,"HINDI,MARATHI, ENGLISH",18,9
206,PRASHANT,CHAUDHARY,prashant13061983@gmail.com,"S NO. 5,KESHAW NAGAR, MUNDHWA,PUNE-36",zuver@123,,0,34,8407954596,Male,13-06-1983,A,MH1220020235516,"HINDI,MARATHI, ENGLISH",9,9
207,Mohammed Mushahi,,md.farhan1506@gmail.com,Room No 1 Aziz R,zuver123,786affd75434a46e,1,2,9004966240,Male,14-07-2016,T,MH0420100015723,"Marathi, English",10 Years,SSC
209,VIKAS,CHANDMARE,vikaschandmare15083@gmail.com,"c/o, Baban Hagwane,Behind Z.P Marathi school, Mhalunge,Pune",zuver123,,0,34,9881621545,Male,15-06-1983,A,MH4420100012092,"MARATHI,HINDI,ENGLISH",11,HSC
210,Thippeswamy,A,thippe64320@gmail.com,Bangalore,zuver123,,0,33,9880456393,Male,20-03-1964,A,KA0119850100112,"Kannada, Telugu, Tamil, Hindi, English",25 years,2ND PUC
211,Sankar,M,sankar11786@gmail.com,Bangalore,zuver123,,0,33,9843502976,Male,11-07-1986,A,TN29 20150007417,"Kannada, Tamil.",3 years,BSC maths
212,Syed,Sharfuddin,1196syed1196@gmail.com,Bangalore,zuver123,,0,33,8553986011,Male,01-01-1996,T,KA0520140025031,"kannada, hindi, english",2 years,SSLC
213,Ahsaan Ali,Sayyed,ahsaanalisayyed26@gmail.com,"Ekta Chawl Commitee, Indira Nagar, Sunder Baug, Hill No 01, Kamani, Kurla ( W )",zuver123,13b66538c9102275,1,2,9987558613,Male,12-07-1992,T,MH0320100082694,"Marathi, English, Hindi",7 Years,SSC
214,Madhu,,sudhamegha66@gmail.com,Bangalore,zuver123,570cc5b366c33e59,1,33,8147420377,Male,23-07-2016,A,KA5020150001924,"kannada, telugu,",3 years,SSLC
215,Govinda,Yelgadi,govindadevil@gmail.com,"004, A wing, Star Avenue, Ramdev Park, Miraroad East",zuver123,c2f24e2d1b35adcd,1,2,9004672979,Male,06-09-1987,T,MH0420070002048,"English, Hindi, Mararthi",5 Years,B Com
216,Narayan,Kumar,trd.hse@gmail.com,"A Tapavan, Moghal Lane, Mahim West, Mumbai 400016",zuver123,,0,2,9819085325,Male,06-12-1955,T,MH0120110059680,"English, Hindi, Mararthi, Tamil, Malyalam",40 Years,B Com
217,Charan,D,charankumard11@gmail.com,Bangalore,zuver123,,0,33,9535413335,Male,17-11-1989,A,KA44 20080007666,"kannada, english",3 years,"PUC, ITI"
218,Sunil Pawar,Pawar,spawar28051983@gmail.com,"Mukti Nagar, Waman Tukaram Patil Marg, Chembur, Mumbai : 400071",zuver123,,0,2,9987244258,Male,28-05-1983,T,MH0320040036915,"Marathi, English, Hindi",15 Years,SSC
219,Jeetendra ,Chavan,jeetendrachavan1234@gmail.com,"Plot No 56, Room No 303, Koparkhairne, Navi Mumbai",zuver123,,0,2,8692018966,Male,20-02-1980,T,MH4320110007840,"Marathi, English, Hindi",9 Years,SSC
220,Mehraj,Shaikh,shaikhmehraj0@gmail.com,"Charkapani vasahat,Devkar vasti,Bhosari,Pune-39",zuver123,,0,34,7028247786,Male,22-06-1981,A,MH1420090056483,"Marathi,Hindi,English",6,HSC
221,WILSON,MATHEW,wilsonmathew@gmail.com,"TITHE WASTI, KHARADI, LANE NO. 5,PUNE-14",zuver123,,0,34,7798848067,Male,16-07-2016,A,MH1220000076356,"HINDI,MARATHI, ENGLISH",15,12
222,anand,patil,anandpatil545@gmail.com,"C-4,MANTRI TOWNSHIP,NEAR SURAKSHA NAGAR,HADAPSAR,PUNE-13",zuver123,415b05d01d021f10,1,2,7875501321,Male,29-06-1979,A,MH1219980013952,"HINDI,MARATHI, ENGLISH",10,12
223,Guru Prasad,Tripathi,Guruprasadtripathi1234@gmail.com,"703 Sai CHS, K K Marg, Vaishali Nagar, Jocob Circle, Mumbai : 400011",zuver123,,0,2,9702590354,Male,01-01-1978,A,MH0120030014288,Hindi,12 Years,SSC
224,Sanjay ,Jadhav,sanjayjadhav1234@gmail.com,"Salunkhe Park, A wing, Building No 5, Room No 204, 2nd Floor, Navghar Road, Bhayender East, Thane 401105",zuver123,,0,2,9702980326,Male,20-02-1967,A,88/17919,"Marathi, Hindi, Eanglish",25 Years,SSC
225,Prashant,Kalambate,prashantkalambate09@gmail.com,"3/100 Sagar Building, Sunder Lane, BJ Marg, Byculla West, Mumbai 400011",zuver123,,0,2,9869875805,Male,21-07-1979,A,MH0120100117445,"Marathi, Hindi, Eanglish",18 Years,SSC
226,Sardar,Jamadar,sardarj091@gmail.com,"A-204, Shiv Shambho CHS, Plot No 49, Sector 11, Kharghar",zuver123,695214d3a65d992c,1,2,9172760222,Male,19-07-1981,T,MH0220080116192,"Marathi, Hindi, Eanglish",8 Years,HSC
227,Imran ,Khan,shahireality@gmail.com,Bangalore,shahi98450,303787c835c14b7e,1,33,9964230377,Male,29-10-1976,A,KA03 2012017089,"Kannada, English, hindi, tamil",25 years,SSLC
228,Salim,Ansari,saifansari320@gmail.com,"B-705, 7th Floor, Plot No : 75, B Rabbani Apartments, Meghraj Sethi Marg, Agripada, Jacob Circle, Mumbai : 400011",zuver123,57f41c5e9cd7cf6,1,2,9167704862,Male,26-10-1991,A,MH0120120046679,"Hindi, English, Urdu, Arabic",5 Years,HSC
229,Rajesh,S,rachu7676@gmail.com,Bangalore,zuver123,4c5eaf3a7d6e9db3,1,33,9980920441,Male,04-08-1989,A,KA1020100000594,"kannada, english",7 years,degree
230,Akhilesh,Dubey,akhileshdubey1234@gmail.com,"Room No 3 Suri 75, Bhakti Dham, Narvade School, Nalasopara East, Palghar : 401203",zuver123,,0,2,8446235653,Male,30-09-1970,T,MH0120080079627,"Hindi, English, Marathi",23 Years,HSC
231,Gavi Ranga,S G,gavi9180@gmail.com,Bangalore,zuver123,,0,33,9844340660,Male,01-01-1986,A,KA01 20040013348,"Kannada, English, hindi",NA,2 nd Puc
232,Shrikant S,Kumbhar,Kumbharshrikant85@gmail.com,"56 sagar vihar nagar, AG khan road near worli dudh dairy worli mumbai 18",zuver123,f4c34af0d6f69b7b,1,2,9323732273,Male,25-03-1985,T,MH-01-9286/2001,"Hindi, marathi, english",15,Ssc
233,mmmb,mmmv,mmm@mailinator.com,dfdsfcds,qwerty,,0,2,9986663366,Male,01-07-1998,T,1234,fdfd,23,dcdc
234,sayed mohammad,rizvi,mdrizvi72@gmail.com,Irani building 3rd floor room no 17 noor chawl  dongri 09,zuver123,c9e597ab27108b6c,1,2,7208707822,Male,21-03-1994,T,MH0120120036598,"English,Hindi,Urdu",5 Years,T.yB Com
235,Zeeshan,Akthar,Testzuver@gmail.com,Bangalore,Zuver123,,0,33,9620706162,Male,21-07-1998,T,123456789,English,12,test
236,Shafique Ahmed,Ahmed,Shafiqueahmed1234@gmail.com,"2/133 New BIT Chawl, Byculla Station Road, Byculla West",zuver123,5e491878c8677bf7,1,2,8080751243,Male,16-03-1965,T,MH0119840022747,"Hindi Urdu, Marathi, English, Arabic",32 Years,SSC
237,Prashanth,M,prashanthmprashanthm96@gmail.com,Bangalore,zuver123,160f4f8adf73befd,1,33,9980142098,Male,08-03-1997,A,KA08201500003132,"Kannada, Telugu, Tamil",2 years,sslc
238,Shailesh,Bobale,shaileshbobale21@gmail.com,"Tina Apartment, Plot No 51,Flat No 101, Sector 9, Kamothe Navi Mumbai",zuver123,,0,2,8976134026,Male,13-02-1987,T,MH0820120009341,"Hindi, marathi, english",5 Years,HSC
239,Swapnil ,Thube,sthube86@gmail.com,"Shiv Kalpataru Arcade, D 005, Sector 17, Plot No 1, Kamothe Navi Mumbai",zuver123,10e8c7d4c1896e40,1,2,8286937440,Male,04-08-1994,T,MH0320130029122,"Hindi, marathi, english",5 Years,HSC
240,testing123,test,lmn@mailinator.com,kjhlkjh,qwerty,,0,33,9967061309,Male,15-07-1998,T,2343,kjfgkjfg,5,BE
241,Mohammed Hussain,Qureshi,hussainqureshi68@gmail.com,"1206 Aashiyana CHS, Opp Andheri Subway, SV Road, Andheri West",zuver123,120a4216f1c7be59,1,2,9821656868,Male,19-11-1980,A,MH0220090015998,"Hindi, marathi, english",10 Years,Ssc
242,Amol,Satardekar,amolsatardekar@gmail.com,"A129, Kenny House, Navnit Chowk, Worli Koliwada, Mumbai 400030",zuver123,b700ed437f676fc0,1,2,9594428642,Male,04-02-1994,A,MH0120120018261,"Hindi, marathi, english",5 Years,HSC
243,PARAG,ZENDE,paragzende@gmail.com,"39/1 Sairam Housing Society, Indrani Nagar,bhosari,pune-26",zuver@123,285cd3879d7da832,1,34,8380001345,Male,20-03-1986,T,MH1420070030795,"HINDI,MARATHI, ENGLISH",9,12
246,Javed Shaikh,Shaikh,shaikhjaved.sj6@gmail.com,"Room No 541 Chawl, No 35, Bharat Nagar, Bandra East",zuver123,,0,2,8976086321,Male,15-01-1981,T,MH0420000016487,"Hindi, English, Marathi",8 Years,SSC
250,Bhushan,Ghangale,bilalg1994@gmail.com,"A1/403 Sarkar Recidency, 138 Rangwala Compound, Mount Road, Mazagaon, Mumbai 400010",zuver123,ee7d72115762ea37,1,2,7738784677,Male,31-03-1994,T,MH0120160001535,"English,Hindi,Marathi",5 Years,HSC
251,Ravindra,Chindarkar,Ravindrachindarkar1020@gmail.com,"Shreed Chawl No 2, Room No 1, Maharashtra Nagar, Dombivalli West",ZUVER123,,0,2,9702344407,Male,04-09-1978,A,MH0119980023333,"Hindi, English, Marathi",18 Years,SSC
254,mahabaleswar,bhat,mb@invenzolabs.com,J pNagar,123456,,0,33,9008951144,Male,15-08-1980,T,9008951144,English,3,MBA
257,Devansh,Gandhi,devanshgandhi@live.in,Mumbai 5500005,devansh11,,0,2,17636868537,Male,08-08-1989,T,mh0187615,ENglish,5 years,BA
258,Harshad,Bagawe,harshadbagawe@gmail.com,"001, Building Number 56, Poddar City, Karjat Road, Badlapur East",zuver123,acc1ff5a4500376c,1,2,7758078093,Male,17-08-1982,A,MH022007C13648,"Mararthi, Hindi, English",10 Years,SSC
259,zuver,testing,zuverdriver13@mailinator.com,rfaf,qwerty,ff22e53528aa9750,1,33,9945480493,Male,01-08-2016,T,243243,english,10,BE
260,Nalinchand,Dev,nalinchand@gmail.com,Bangalore,zuver123,,0,33,9108884326,Male,22-06-1966,A,Ka1919862000325,"English, Hindi,Kannada,",10 years,puc
261,Sharath Kumar,V N,sharathkumar5408@gmail.com,Bangalore,zuver123,,0,33,9590820943,Male,11-10-1980,A,1436172,"Kannada, Telugu, Tamil, Hindi, English",8 years,diploma in electronics
262,Karthik,S,karthiks170785@gmail.com,Bangalore,zuver123,,0,33,8147157873,Male,17-07-1985,A,KA0420050010431,"Kannada, Telugu, Tamil, Hindi",11 years,8 th std
263,zuver,driver,zuverdriver134@mailinator.com ,testing,qwerty,,0,2,8892881825,Male,02-08-2016,T,243243,english,10,BE
264,zuverpune,testing,suppkljort@zuver.in,mnm,qwerty,,0,34,8867061309,Male,02-08-2016,T,243243,english,10,BE
265,Prashant,bhalerao,ppbhalerao27@gmail.com,307 somwar peth sampada nagari near 15 august logde chowk pune 411011,zuver123,eebe0027b7ddb878,1,34,9850994171,Male,27-07-2016,A,MH1220030451576,"hindi,marathi,english",15,grad
266,HEMANT,PAWAR,hdpawar2242011s@gmail.com,"S.No 130,DANDEKAR BRIDGE,PUNE",zuver123,be86b435041e4261,1,34,9527884527,Male,10-06-1978,A,MH1220020296029,hi,12,HSC
267,Ashley,Dsouza,ashleysherly@gmail.com,"Saket Prem, Plot No 294, B/12, Shere Punjab CHS, Andheri",zuver123,,0,2,9821034904,Male,30-08-1966,A,MH0220070142569,"English, Hindi Marathi, Gujrati",35 Years,SSC
268,Ashpak,Sayyad,sayyadashpak29@gmail.com,"74/2, anand vihar, sant nagar,lohegaon, pune-47",zuver123,691fd2dc63115f02,1,34,9860004260,Male,29-12-1981,A,MH1120050002910,"HINDI,MARATHI, ENGLISH",11,12th
269,Sachin,Jadhav,jadhavs7816@gmail.com,"A/402 Anantnath Apt, Vijay Nagar, Tulinj Nallasopara",zuver123,5e6f260f6fcb9fed,1,2,9028872612,Male,28-11-1987,A,MH0420100034838,"English, Hindi Marathi",5 Years,HSC
270,Mohammed Fahim,Shaikh Bhikan,9223306046.nmb@gmail.com,"B2 - 06, Rm No 10, Sec15, Vashi, Navi Mumbai 400 703",zuver123,,0,2,7208347401,Male,25-11-1975,A,MH0419960015416,"English, Hindi, Marathi",10,Diploma ( Electronic & Computers )
271,Kiran,Bhujbal,bhujbal.kiran@gmail.com,"Building No R 9, Flat No 607, Ram Mandir Road, Goregaon West",zuver123,2b203aa582a6461b,1,2,8698629248,Male,18-12-1989,A,MH1420080012312,"English, Hindi, Marathi ",5 Years,HSC
272,Santosh Patil,Patil,shreepatil370@gmail.com,"Room No 210 Mahatma Jyotiba Phule Chawal, Mukund NAgar, P L Lokhande Marg, Chembur West",zuver123,a41ab45da3a5c74d,1,2,9769000796,Male,01-10-1982,T,MH0920100059106,"English, Hindi, Marathi , Gujrati",9 Years,HSC
273,Mithilesh Kumar,Pathak,Mithileshkumarpathak12@gmail.com,"701 Meera apartment,E avenues,chatterji Rd Santacruz (W) Mumbai  54",zuver123,,0,2,9820799086,Male,20-12-1979,A,MH0220090164340,"English,Hindi",17,B.A
274,Manjunath,R,manju1123mn@gmail.com,zuver,zuver123,e8ed1d7f91ae71ea,1,33,9008422949,Male,23-06-1989,A,KA0220022955,"Hindi, Kannada, Telgu, Tamil",4 years,S.S.L.C
275,Chetan,Acharekar,chetanacharekar1982@gmail.com,"9/136 Adarsh nagar, veer Nariman Road,Century Bazar, P.M.G Worli  Mumbai-400030",zuver123,63a25902f639f2,1,2,9967732221,Male,06-09-1982,A,MH0120140013405,"English, Hindi,Marathi",15,SSC
276,Krishna Pandey,Pandey,Krishnapandey1234@gmail.com,"16 Shiv Nath Yadav CHL, Durga Nagar, J V Link Road, Jogeshwari East",zuver123,,0,2,8976479706,Male,13-06-1989,A,MH0220080076870,"English, Hindi, Marathi ",10 Years,HSC
277,Jagdish,Kuchekar,kuchekarj@ymail.com,"16/b-4, om ganesh CHS ltd, plot no 37, sector 48, nerul, navi mumbai",mahadev@123,b798547709152e9,1,2,919172241045,Male,28-09-1984,A,mh2320120007032,"Hindi, marathi, english",5,BA
278,Manohar,Kalambaste,manoharkalambaste@gmail.com,"room no 13, omkar chawl, duttatekdi, jvlr rooad, jogeshwari east, mumbai 400060",zuver123,a485c7cba16aa733,1,2,9029941183,Male,01-06-1972,T,mh0219990020594,"hindi, marathi",22 years,7th standard
279,Abdul Rashid,Khan,Khanabdul0786rrl@gmail.com,"R No -  D17, Janta Sevak Society, Mori Road, Behind Mahim Bus Depot, Mahim West",zuver123,22bda887dc58662b,1,2,9322056037,Male,17-08-1976,T,MH011997009750,"English, Hindi, Marathi , Gujrati, Urdu",23 Years,SSC
280,Yunus Shaikh,Shaikh,mohdshaikh2009@yahoo.com,"Sai Sagar, Flat No 102, Sai Bazar. Near Tuljani Police Station, Nalasopara East",zuver123,,0,2,8879558126,Male,13-10-1971,T,MH0220090045968,"English, Hindi, Marathi , Arabic",23 Years,SSC
281,Mohammed Yunus,Shaikh,myshekh@gmail.com,"Room no-1, 141 Squater colony Gate No -6 veer Abdul Hamid Road Malwani Malad (W) Mumbai 400095",yunus4176,1ebf942a6ca0cc2a,1,2,9702521344,Male,04-01-1976,T,MH0220090124084,"English,Hindi,Marathi,Gujarati,Urdu",20,B.Com
282,Mohd,Azam Ansari,aazamansari697@gmail.com,"plot no 15,room no 833, shahid abdul hamid marg, lotus colony, govandi , mumbai 400043",ansari,2bbd544529529c73,1,2,9322839223,Male,13-03-1974,A,mh 03 20110010802,"hindi, marathi, english",15,10th
283,Pankaj,Ingala,pankaj77@live.in,167/2685 near samaj mandir hall  tagore nagar vikroli east mumbai 83,pankaj123,4fc464cad87a632,1,2,9987380875,Male,17-02-1987,A,MH 19 20100039945,"English, Hindi , Marathi",6,B.A
284,Vinay,Lad,ladvinay22@gmail.com,"350, old ganjawala bldng, 2nd flr,, r/17, tardeo, mumbai,jb b road marg, mumbai 400034",9987799958,db12e718d95269e5,1,2,9987799958,Male,22-01-1994,A,mh0120120022038,"hindi, marathi, english",2,Bsc
285,Santosh,Pawar,info@zuver.in,"10/327, unnat nagar 4, behind anand hotel, goregaon west, mumbai, 400104",santosh,1de5a3d69f9ad15e,1,2,7588105604,Male,10-03-1972,A,mh0220043018518,"hindi, marathi, english, gujrati",12,12th
286,Test1,Zuver,test1@noemail.com,qwee,test123,fcbc9fc2370c33b2,1,2,9460205564,Male,01-08-2016,A,asda,assdadas,sadssad,sadasd
287,Mangesh,Shigwan,m2angeshshigwan55@gmail.com,"Gokul nagar , Juna agra road , thane west (temporary add)
57,Guru kripa chawl no 2,anand nagar , appa pada , malad west (permanent add)",8879246045,,0,2,918879246045,Male,07-05-1980,T,MH02 20000069157,"English, Hindi , Marathi ",15,ssc
288,Mangesh,Shigwan,mangeshshigwan55@gmail.com,"57,Guru krupa chawl No. 2, Anand nagar, Appa pada., Malad east, Mumbai-400097",zuver123,7fd4705a7c3e0a4d,1,2,9869534947,Male,07-05-1980,A,MH02-20000069157,"Marathi, Hindi, English",15,SSC
289,Vishal S,Shivkar,Vishalshivkar9291@gmail.com,"Room No 30, Roshan Nagar, Zopadpatti Sangh, Cama Road, Near Wahid Lala Garage, Andheri West, Mumbai : 400058",zuver123,,0,2,9833345392,Male,03-08-2016,A,MH0220130045026,"English, Hindi, Marathi ",12 Years,7th Std
290,Farooque,Sayyed,farooquesd@gmail.com,"Bhushan Elfare Socety, Near Mohammedi Masjid, janta Colony, Gilbert Hill Road, Andheri West, Mumbai 400058",zuver123,,0,2,8108890405,Male,12-01-1989,A,MH0220090047520,"English, Hindi, Marathi ",7 Years,SSC
291,Ajay,Tiwari,indianboyy2003@yahoo.com,Seksaria compound R 11 A G H road Parel nr Manohar Decorators Parel village,zuver123,,0,2,8898214140,Male,01-07-1969,A,MH0119900003981,English hindi Marathi,20,Sybecom
292,Umesh Chauhan,Chauhan,Umeshchauhan1234@gmail.com,"1/2 Rajesh Housing Society, Baburao Patil Road, Hanuman Nagar, Bhandup West",zuver123,,0,2,9920478701,Male,12-03-1978,A,MH039630000297,"English, Hindi, Marathi ",10 Years,HSC
293,Mangesh,Shinde,mageshshinde1234@gmail.com,"5/14 1st floor, Valunj Chawl, Ghodapdev Road, D P Wadi, Cotton Green East, Mumbai 400033",zuver123,,0,2,9930101262,Male,07-10-1978,A,MH0120080010009,"English, Hindi, Marathi ",18 Years,SSC
294,Sharukh,Shaikh,shraukhshaikh1234@gmail.com,"Room No 158 Janta Colony, Gilbert Hill Road, Near Mohammediya masjid, Andheri West",zuver123,,0,2,8108403638,Male,27-02-1995,A,MH0220150032807,"English, Hindi, Marathi ",5 Years,SSC
295,ALAUDDIN,HASMI,alauddinh417@gmail.com,"HOUSE  NO 715 SHOP NO 2 . TIP TOP TAILOUR, GROUND FLOOR PLOT NO 975, NERUL KARAVE VILLAGE . NAVI MUMBAI",zuver123,1549bf0feaa2f4c2,1,2,9920252901,Male,10-08-1988,A,MH43 20110015598,"English, Hindi, Marathi",5 Years,SSC
296,Sagar,Pawar,devansh@zuver.in,"sainath chawl, no 4, room no 5, new shivaji nagar, kalva east",shraddha0810,99a3cad2f72058bb,1,2,9987967132,Male,08-01-1996,A,mh1120150006922,"hindi, marathi",2,12th
297,Mohd Salim,Punjabi,mohd9029794548@nomail.com,"9/haji kasam building, room no 5, 2nd floor, versova st,belasis road, Mumbai 40000",925069,,0,2,9029794548,Male,13-02-1966,A,mh 01 198436032,"hindi, marathi, english",16,9th
298,Riyaz ,shemle,shemle8900@gmail.com,"56 vitthal mandir colony, jb wadia road, sewri mumbai 400015",shemle8900,483bc846321882d2,1,2,9892685873,Male,05-11-1981,A,mh 01 20010045163,"hinid, marathi, english",15,fyjc
299,sadique ,Ahmed,ssadique_525@gmail.com,"pmgp mhada colony, building no 97, room no 507, mankhurd, mumbai 400043",9870182949,,0,2,9870182949,Male,13-06-1991,A,mh0320120013106,"HINDI, MARATHI",4,ssc
300,Akash m ,kulkarni,Akashkulkarni3333@gmail.com,ZUVER,zuver123,,0,33,8792673797,Male,15-04-1992,A,ka2220130000540,"HINDI, KANNADA,ENGLISH",4,slsc
301,Asyd,Mohammad,khanasyd09@gmail.com,"B 12 Room 8 , B M C colony Park Site , Vikroli West ",zuver123,4bf7a798653405,1,2,8828823688,Male,01-07-1985,A,MH0320040024940,"English, Hindi , Marathi ",10 years,SSC
302,Mujeeb,Ahmed,sonumujibkhan@gmail.com,"Prabhat Nagar , Ramabae colony,chawl no L room no 172, ghatkoper E",zuver12345,b3102e5f66b987d,1,2,7710925114,Male,05-03-1992,A,MH 1920100043521,"English, Hindi , Marathi",5,SSC
303,Anil,kalambe,rr1363922@gmail.com,"145 PANNNAGAR , GURU NANAK NAGAR NO FT ROAD , SHIB=VAJI OPP TEQNICAL SCHOOL, GHATKOPER EAST MUM NO 75",zuver12345,,0,2,8692004475,Male,16-10-1984,A,MH 01 20110017449,"English, Hindi , Marathi ",13 YEARS,9
304,Mujibor ,Shaikh,mujibshaikh06@gmail.com," ROOM NO 99 2/4WORLI NAKA , BIJI KHED ROAD , MUMBAI 18",zuver12345,58bb7b9aa5625de3,1,2,8425998045,Male,01-03-1972,A,MH 01 19900011109,"English, Hindi , Marathi ",26 YEARS,6
305,Raju ,Rathod,rr13639222@gmail.com,"BIN NAGAR BINROA CHAWL , SHRI SIDDHNATH MEDICAL , 3 BUDDHA VIHAR OPPOSITE  SARVODYA HOSPITAL, GHATKOPER WEST , MUMBAI 86",zuver12345,643cdd4585b1018f,1,2,7208133034,Male,19-04-1984,A,MH 02 20090043592,"English, Hindi , Marathi ",10 years,8
306,Imran,Khan,imrankhanlala73@gmail.com,"14/F GAFOOR SETH CHAWL, 2ND FLOOR ROOM NO 51 , CHRAMANI BHUD VIHAR MARG MUM 8",zuver12345,,0,2,9664778651,Male,07-06-1977,A,MH 01 19990044323,"English, Hindi , Marathi",13 YEARS,SSC
307,Siyashran,sharma,siyashransharma15@gmail.com,"ROOM NO 10, MARAS ADI MOTHILAL NAHRU NAGAR, WORLI, MUMBAI 400018

ORIGNAL BIRTH DATE - 15/11/1964",zuver12345,b9714f102304ae4c,1,2,9819518014,Male,15-11-1966,A,MH 01 20090003492,"English, Hindi , Marathi ",32,8
308,Asif,Patwekar,Asifpatwekar18@gmail.com,"Oreintal arcade b wing ,1305 Dr BA road chinchpokli E mumbai 12",zuver123,fdb1e5a1ed50a53c,1,2,9821105202,Male,11-03-1983,A,MH01200160857,"English, Hindi, Marathi , Gujrati",5 Years,HSC
309,Mohammed Aslam,Qureshi,aslam_61gskk@yahoo.com,"BLOCK A-53 ROOM NO-2, MUNCIPAL COLONY , DEONAR , GHOVANDI WEST ,MUMBAI 400043

HIS ACTUAL BIRTH DATE
15-10-1961",zuver12345,cf93559a59c3cc27,1,2,9987865644,Male,15-10-1966,A,MH 01 19790025193,"English, Hindi , Marathi ",20,H S C 
310,Shaikh Faisal (Biker),Munir Ahmed,Faiss@live.com,"Rm No. A1/132, M.G Road, Social Nagar, Sion Dharavi, Mumbai- 400017",8080fais,79486f71a4b4fa40,1,2,9702323786,Male,19-06-1983,A,MH0120080134329,"Hindi, Marathi, English",2,F.Y.B.A
311,kASHIF ,KHAN,kashif.ayub24@gmail.com,"FALAT NO A-1, TOWER HILL PARK,JOGESHWARI WEST ",zuver12345,,0,2,9892669639,Male,30-08-1983,A,MH 02 20100051022,"English, Hindi , Marathi ",6 YEAR,SSC
312,Ghanshyam,Waghela ,ghanshyamwaghela1@gmail.com,"SIR JJ HOSPITAL COMPOUND, F 17, BYCULLA , MUMBAI 400008",zuver12345,,0,2,7045377768,Male,02-05-1984,A,MH 01 20070043481,"English, Hindi , Marathi GUJRATI",10 years,H S C 
313,vijay,maurya,vijaymaurya853@gmail.com,"R/02 MALPA HILL NO 3, MAHAKALI CAVES ROAD, ANDHERI (EAST)",zuver123,13c7dbb62f97ea21,1,2,9773140740,Male,08-09-1989,A,MH 02 20120050150," hindi, english, marathi , gujrati, bengoli.",5,B.COM
314,Sunil Ashok,Jadhav,royjadhav41@gmail.com,1 FKL Rm 12 Servants qurters F jj Hospital road Mumbai metro Mts 400008,zuver123,,0,2,9967165850,Male,27-06-1986,A,MH 0220090125831,"Hindi,marathi,gujarati,english",5 Years,Ssc
315,Niranjan ,Wakchoure,wakchoureniranjan@gmail.com,"fLAT NO 205, SECOND FLOOR , BALLALESHWAR BUILDING , MOTIRAM PARK , B CABIN ROAD , AMBERNATH EAST , THANE DISTRICT",zuver12345,d27c58f242b3b0c7,1,2,8983919394,Male,19-03-1989,A,MH 05 208 BC 330,"English, Hindi , Marathi ",3 YEARS ,SY BA 
316,Nawaab,Shaikh,alinawab5@gmail.com,"307 , B WING , KINAAT SOCIETY , NEAR GANPATI MANDIE , VIRAAR EAST",zuver12345,f261a5f92b312be7,1,2,9967868453,Male,15-07-1986,A,MH 02 20070047236,"English, Hindi , Marathi ",8,12
317,Nishant,Chouksey,snishant55@gmail.com,"104 mANGAL MURTI DARSHAN , NEAR SAI BABA MANDIR, OPPOSITE JAGGANNATH PALACE , NEAR STAR COLONY , MAANPADA ROAD ,DOMBIVALI EAST ",zuver12345,7dacef4bd920eaa8,1,2,9921153344,Male,09-08-1988,A,MH 05 20110028979,"English, Hindi , Marathi ",5,12
318, Abdullah Mohammad Ali ,Ansari ,Ansariabdullah8877@gmail.com,"Room no 1, ali compound azad nagar shilphata mumbra E thane ",zuver123,6dcbae3db75c74c4,1,2,7738195197,Male,13-07-1989,A,MH0420120014181,"HIndi,Urdu,English,Marathi,",4 year,SSC
319,Pandurang ,Argaonkar,panduargaonkar8652@gmail.com,"D/5 Rm no 8 municipal chawl,khardev nagar ghatla village chembur E",zuver123,,0,2,8652157548,Male,16-02-1980,T,MH0120100114548,"Hindi,Marathi,English,",15 year,SSC
320,Ramesh ,Parmar,ramesh.p5678@gmail.com,"rOOM NO 5 , OLD BAREK, T/41, cHEMBUR COLONY , MUMBAI 4000074",zuver12345,55759f59227e84,1,2,9920547111,Male,07-11-1980,T,MH 03 200/F/9683,"GUJJRATI , MARATHI HINDI , ENGLISH",10 years,8
321,Shanawaz,Shaikh,shanawazshaikh04@gmail.com,"B I T CHAAWL NO 10 , R/30, FIRST FLOOR , FAROOQUE .UMER . BAHI MARG  OPPOSITE TELIPHONE EXCHANGE , AGRIPADA , MUMBAI 400011",zuver12345,f95c78d29e0dc781,1,2,7506413480,Male,15-09-1981,T,MH 01 20120004454,"English, Hindi , Marathi ",4,10
322,Faizal,Shaikh,faizalshaikh037@gmail.com,D-1/002 Geeta vidhata geeta nagar Ph-7 neer bridge mira road E thane,zuver123,82c04420b2abcf2c,1,2,9987979958,Male,10-12-1988,T,MH0420130018518,"Hindi,Marathi,English",5 yrs,SSC
323,Chandrakant,Deshmukh,chandan161980@gmail.com,"PATIL HOUSE, KASHELI VILLAGE, KALER , THANE",mitanshu1680,e4690577d8553437,1,2,8291073566,Male,29-06-1980,A,MH 04 200030049500,"English, Hindi , Marathi",16,BA
324,Samarjeet Chavan,Chavan,samarjet@gmail.com,"A WING 1004/ TITANIUM TOWERS SAHAKAR NAGAR , BESIDE APNA BAZAR , JP ROAD , NEAR DN NAAGAR , ANDHERI WEST ",zuver12345,,0,2,9167172947,Male,08-11-1991,A,MH 02 20090216664,"English, Hindi , Marathi ",5,10
325,Khajjappa Malgankar,Malgankar,skmalgankar123@gmail.com,"SHIV SHAKTI NAGAR , ROOM NO 302, GENERAL JAGANNATH BHOSALE, MARG VIJ BHAVAN , BUS STOP BACK SIDE NARIMAN POINT MUMBAI 400021

10/10/1965 WAS HI ORIGNAL BIRTH DATE",zuver12345,c80fe2dd971f15e,1,2,9833889556,Male,10-10-1966,A,MH 01 19880039175,"English, Hindi , Marathi ",25,9
326,Santosh Devdas,Devdas,annamsantosh11@gmail.com,"271, CHOUDHARY COMPOUND , VARAL DEVI HALL , KAMAT GHAR , THANE ",zuver12345,bd1ceba37c5a9d67,1,2,9890808108,Male,23-09-1983,T,MH 04 20040028151,"English, Hindi , Marathi ",5,7
327,Faisal Parkar,Parker,faisalparker@nomail.com,"102, MANOHAR GALI CHAWL, KAJU WADI , ANDHERI EAST ",zuver12345,,0,2,9960880747,Male,03-06-1990,A,MH 02 20080190415,"English, Hindi , Marathi ",7,12
328,Rohit Shinde,Shinde,rohitshinde037@gmail.com,"367/A BHAGIRATI CHS , SECOND FLOOR ROOM NO201, SECTOR 1 , NERUL NAVI MUMBAI ",zuver12345,9f74dedf0e593367,1,2,7506293999,Male,07-10-1992,A,MH 01 20090079408,"English, Hindi , Marathi ",6 YEAR,B COM
329,Rajesh Kamble,Kamble,kamblerajesh78@gmail.com,"Sai Chawl Room no8 ,2nd pasta lane colaba mumbai",zuver123,281948cad06eef7e,1,2,7506341006,Male,04-09-1978,A,MH01200129363,"English, Hindi , Marathi",16 years,9th Passed
330,Salman Ghatle,Ghatle,salmanghalte@gmail.com,"3rd foor , gani building , room no 13, seven chuech street , dockyard road east ",zuver12345,f9e91a7d62de4df4,1,2,8983044340,Male,10-11-1989,A,MH 05 20100003863,"English, Hindi , Marathi ",6 YEAR,B.A
331,Pravin prabhakar,Tambe,pravin60tambe@yahoo.co.in,71 sudam zopadpatti jamshedji bunder road colaba mumbai 400005,zuver123,5da41acc60dc8d20,1,2,9004549855,Male,02-02-1999,T,MH0120110000177,"English, Hindi, Marathi ",2 years ,SSC
332,Amol Dipke,Dipke,amoldipke92@gmail.com,"VASHNAVI APPARTMENT, B 43 , SEC 4 , ROOM NO 5 , KHANDA  COLONY , PANVEL ",zuver12345,,0,2,9768823832,Male,30-05-1995,T,MH 37 20140006663,"English, Hindi , Marathi ",4,12
333,Nitesh Dipke,Dipke,niteshdip001@gmail.com,"VASHNAVI APPARTMENT, B 43 , SEC 4 , ROOM NO 5 , KHANDA  COLONY , PANVEL ",zuver12345,fb0c48dec043f902,1,2,9768457869,Male,12-09-1989,A,MH 46 20150017670,"English, Hindi , Marathi ",4,12
334,Eric Dsouza,Dsouza,dsouza.eric444@gmail.com,"C 301 , KANCHAN GANGA SOCIETY ,nEAR SHANKAR MANDIR , GARIBACHA WADA , MAHATMA PHULE ROAD , DOMBIWALI WEST , 421202",zuver12345,b0938e85c9e7e199,1,2,9819200158,Male,15-03-1983,T,MH 05 20100007860,"English, Hindi , Marathi ",10 years,12
335,Vilas ,Patil,zuvertest@gmail.com,3/1 Rajgad CHS kokan nagpur bhandup (W),zuver123,,0,2,9773737062,Male,08-09-1984,T,MH0120080057618,"Marathi,Hindi",12 yes,12th hsc
336,Virendra Verma ,Verma,thakuraarti676@gmail.com,"MADWADI CHAWL , SECTOR 1 , SHIRONE GAON , NERUL ",zuver12345,,0,2,9987142715,Male,01-01-1987,T,MH 46 20160002340,"ENGLISH, HINDI MARATHI",4,9
337,Sunil Dattatray Powar,Powar,sunil.powar10@gmail.com,"Room no 10 b , K H KHATRI CHAWL , FARID NAGAR PRATAP ROAD , BHANDUP WEST ",zuver12345,5b436992a70bf94f,1,2,9869988303,Male,06-12-1979,T,MH 01 19980047577,"ENGLISH, HINDI MARATHI",15,12
338,Sachin ,Pal,sachin.pal705@gmail.com,"Room No,03, Hanuman Nagar, Tadali road,kamatghar, Bhiwandi,Thane-421305",zuver123,32f73be953a8305f,1,2,9689338839,Male,10-09-1986,T,MH-0420110010123,"Hindi, Marathi",8 Years,10th
339,Mansur,Tolkar,mansoortolkar_2006@yahoo.com,"Flat No. 704, 7h floor, A wing, Haider baug,Narayan nagar, Near Mumbra Police Station Mumbra-400612",zuver123,827027df4c737b3c,1,2,9594242907,Male,26-09-1980,A,MH0120010052207,"ENGLISH, HINDI MARATHI",12,S.S.C
340, Anand Janardhan Parab,Parab,anand.jp1981@gmail.com,"B/8 ARADHNA CHS , ANND NAGAR SANTACRUZ EAST",zuver12345,,0,2,9920666029,Male,13-09-1981,A,MH 02 20080055388,"ENGLISH, HINDI MARATHI",3,12
341,Mahesh Mirchandani,Mirchandani, maheshmirchandani@gmail.com,"BK NO 719, ROAD NO 4 ,HOSPITAL AREA, NEAR PAPPU SOC ULLASNAGAR, THANE",zuver12345,4e9f4482430309f4,1,2,9527518910,Male,31-10-1972,T,MH 05 20140025931,"ENGLISH, HINDI MARATHI",20,5
342,Rajesh Chikhalkar,Chikhalkar,rajeshchikhalkar.123@gmail.com,"SAI REHWASI SANGRA , SAI BABA MANDIR , SHIVAJI NAGAR, JARI MARI K.A ROAD , KURLA ",zuver12345,77baf18e934547d2,1,2,7039608112,Male,03-03-1975,A,MH 01 20090129134,"ENGLISH, HINDI MARATHI",15,12
343,Md Zoheb,Shaikh,zoh85mobile@gmail.com,"Room No.541, Chawl No.35,Bharat Nagar East Mumbai-400051",zuver123,,0,2,9222011786,Male,02-05-1985,T,WB0120030609697,"English,Hindi,Urdu,Bengali",8 th year,12th
344,Vijay,Ranade,vijaymranade07@gmail.com,"Laxmi Niwas, R. No.4, Sant  Named Parh, Gograswadi, Dombivli(E) Dist-Thane-421201",zuver123,,0,2,9769803968,Male,11-11-1966,A,MH-05 20150007694,"Marathi, Hindi, Eanglish",27 Years,12th
345,Javed,Khan,aayankhan317@gmail.com,"Sant Gyaneshwar Nagar, Chawl No.62, Room No.4,Bharat Nagar, road, Bandra east Mumbai-400051",zuver123,8707113d1ce4ed40,1,2,8767074860,Male,01-12-1990,A,MH-02-20110041460,"English, Hindi,Marathi",4 years,HSC
346,Sukhraj,Kanaujiya,raj694952@gmail.com,"149, Ganesha murti nagar, zopadpatti bhag 5, captain prthe marg, Cuff Pared, Colaba, Mumbai-400005",zuver123,36d9193456ffb7fe,1,2,9870200988,Male,10-04-1981,T,MH-01 9945398,"Hindi, Marathi",6 years,6 th
347,Clifford,Menezes,cliffordmenezes853@gmail.com,"Room No. 230, Chaukute chawl, khar danpada, 21st  road, near Ganesh mandir, khar west. Mumbai-400052",zuver123,c33519c7828d7a5,1,2,8433601571,Male,29-09-1979,A,MH-02 20090212990,"English, Hindi,Marathi",15 Years,5 th
348,Prakash,Jadhav,jadhavprakash719@gmail.com,"Tembipada Above Pandav Kundra Room No-09 C/N No.01,Sridevi Bhagavati Chawl,Nardas Nagar Bhandup West Mumbai",zuver123,256afa0131a54e5e,1,2,8097425957,Male,15-11-1975,T,MH-01 2016356,"Marathi, Hindi, Eanglish",16 Years,SSC
349,Laeek,Ansari,laeek.royalfashion.22@gmail.com,"Room No.11,Sayyed Amin Chawl,Cementry Road,Near Kachawali Masjit,Queresh Nagar,Kurla East,Mumbai",zuver123,80a1739cab8a3b27,1,2,7718052545,Male,17-02-1990,A,MH-03 2013275,"English, Hindi,Marathi",4 years,HSC
350,vicky ,anand,vickyvidya84392@gmail.com,"#412 2nd cross ambedkar nagar vivek nagar post koramangala
bangalore 47",zuver@1234,d6e7345b9e1616f1,1,33,9880380854,Male,12-12-1996,A,ka51 20160024485,"kannada, tamil, hindi, english",fresher,10th 
351,Prasanna,Gs,prasannaswame@gmail.com,"#, somanahalli geat, kanakpura road,bangalore",zuver@1234,,0,33,9535748699,Male,06-01-1996,A,KA4220150003194,"kannada, engliosh",fressher,2ND PUC
352,nagarjun,s,nagarjunskotha@gmail.com,"#, jp nagar 6th phase , bangalore",zuver@1234,ba303fdbef0e159c,1,33,7829444548,Male,01-06-1988,A,ka5120160024480,"kannada, english, telgu",fresher,1 puc
353,amarnath,reddy,amarreddi1881@gmail.com,"#, 185 janabharthi lyout volagerihalli , 1st block 3rd main bangalore 59 near rv college mysore road",zuver@1234,56ca70137faee537,1,33,9066111456,Male,08-07-1991,A,ka4120110013883,"kannada, english, telgu,hindi",5 years,bbm
354,prashanth d m,mallesh gowda,pshntgwda@gmail.com,"#26, Sri Sai Ashraya PG
Triveni Main Road, Near Fish Land Hotel, Yeshwanthpur
Bangalore-560022",zuver1234,3aa5cee272006abb,1,33,8892996007,Male,23-05-1983,A,KA 05 20050000756,"Kannada, Hindhi, English",Fresher,BA
355,Veeresh,Nagaraj Gaddad,veeeru3190@gmail.com,"Sri Sai Ashraya PG 
Triveni Main Road,
YeshwanthPur, 
Bangalore -560022",zuver@1234,511b43c73679950e,1,2,9739856163,Male,03-01-1990,A,KA 04 20150017518,"Kannada, Hindhi, English",Fresher,SSLC
356,Hanamantha Gouda,Thimanna Gouda,dhawangouda01@gmail.com,"Sri sai ashraya PG
Triveni Main Road
Yeshwanthpura
Bangalore-560022",zuver123,,0,33,8792438167,Male,06-04-1991,A,KA 04 20160024462,"Kannada, English",Fresher,PUC
357,Harisha N,Narasimha Murthy,nharisha536@gmail.com,"# 388, 
6th Cross
Kumarswamy Layout,
Bangalore 560078",zuver123,,0,33,9620200616,Male,03-01-1997,A,KA 04 20160024463,"Kannada,  English, Telugu",Fresher,SSLC
358,Prakash Rupawate,Rupawate,viraajtanisha19868686@gmail.com,"Ali bhadur chawl , room no 1, A.C.C road , Mulund West",zuver12345,21b013931637e881,1,2,9869572629,Male,07-04-1986,A,MH 03 20040035870,"English, Hindi, Marathi ",10 Years,10
359,Pramod,BP,pramodbp92@gmail.com,"#149, 4th main, MS Ramiah Enclave, 8th main, hesaraghatta road, Bangalore -73",pramod@123,,0,33,8123373478,Male,13-07-1992,A,KA0420110011568,"kannada, english, telgu,hindi, tamil",5 years,SSLC
360,Shahbaz,Shaikh,shahbazshaikh99201@gmail.com,"Razzak BLD Room No70,Dimtimkar Road,Nagpada Mumbai Central",zuver123,a30e21bd7b9b1502,1,2,9619288221,Male,14-12-1988,A,MH01 2014211,"Hindi,English,Arabic",4 Years,12th
361,Shahbaz,Shaikh,shahbazshaikh9201@gmail.com,"Razzak BLD Room No70,Dimtimkar Road,Nagpada Mumbai Central",zuver123,,0,2,9323709839,Male,14-12-1988,T,MH01 2014211,"Hindi,English,Arabic",4 Years,12th
362,Afshan,Pasha,afshanbai03@gmail.com,"595, bihind srs compund, peenya 1st stage",zuver@123,84823efb5db35f7b,1,33,9743007667,Male,02-05-1997,A,ka5120160024487,"hindi,english,kannada",1year,9th
363,Nilesh Shah,Shah,nshah5404@gmail.com,"D 15 A wing 203 , yogi nagar , ekser road , borivali west mumbai 91",zuver12345,,0,2,7506696562,Male,22-07-1972,A,MH 02 20070040809,"English, Hindi, Marathi , Gujrati",20,diploma 
364,Lokesh,Nagarj,lokeshn526@gmail.com,"#89
2nd Main Road
2nd Cross Road
Opposite K N Geetha School
Lakshmi Devi Nagar
Nandhini Layout
Bangalore-560096",zuver123,b11f4aee9e1c4e65,1,33,9844617103,Male,14-02-1997,A,KA 43 20150003086,"Kannada, English, Tamil & Telugu",Fresher,SSLC
365,Khasti Pandey,Pandey,khastipandey@gmail.com,"A- 23 SAI LEELA SOCIETY , NEAR SAKINAKA 90 FEET ROAD , LALBAHADUR , SHASTRI NAGAR ",zuver12345,7a7d9f6b02d239ab,1,2,9821584735,Male,04-01-1985,A,MH 02 20052012051,"English, Hindi, Marathi",10,12
366,Kishor,Waghela,kishorwaghela@gmail.com,"R.No.7, Patad Chawl, Francis adi, Jogeshwar East",zuver123,,0,2,9821880182,Male,06-06-1978,A,MH-02-20070074364,"gujrati,Hindi, Marathi",17 years,SSC
367,Sumit Nawgiri,Nawgiri,sumit.nawgiri07@gmail.com,"RENTED ADD- 703/24 , OLO MAHADA COLONY , EKTA NAGAR , KANDIVALI WEST 

VILLAGE ADD- 20, RAM NAGAR COLONY , NEAR AZAD MAIDAN , JALNA ",zuver12345,a370e8e9cf2c5955,1,2,8291034882,Male,07-06-1988,A,MH 21 20120007020,"English, Hindi, Marathi ",5,12
368,Ajinkya,Chougule,ajinkyaa.chougule@gmail.com,"B/203, Ram Krishna Hari SOC., Kopar Road, Dombivli (W)",zuver123,c7023b906466860e,1,2,7977452205,Male,15-02-1994,A,MH0520120018613,"Marathi , Hindi , English",5,12th
369,Shahbaaz,Shaikh,shahbazshaikh920@gmail.com,"Razzak BLD Room No70,Dimtimkar Road,Nagpada Mumbai Central",zuver123,,0,2,7021667797,Male,14-12-1988,T,MH01 2014211,"Hindi,English,Arabic",4 Years,12th
370,S Murgan Conar,Conar,murganconar@gmail.com,"SHREE KRUPA BLDG , HOUSE NO 1668 ROOM NO 301 , SECTOR 23 , JUINAGAR , NAVI MUMBAI ~",zuver12345,,0,2,9594596871,Male,10-10-1966,A,MH 01 1983005486,"English, Hindi, Marathi ",26,4
371,RAJESH CHAUHAN,CHAUHAN,rajeshchauhan@gmail.com,"1/2 RAJESH CO-OP- HOUSING SOCIETY BABU RAO PATIL COMPUND (KHADDAN) P-N ROAD HANUMAN NAGAR , BHANDUP WEST , MUMBAI 400078",zuver12345,,0,2,9833795988,Male,05-01-1977,A,MH 03 19960030296,"English, Hindi, Marathi ",20,12
372,BANDU PACHORE,PACHORE,bandupachore@gmail.com,"NEAR SHIV SHAKTI VIKAS MANDAL INDIRA NAGR PIPE LINE , I I T POWAI , MUMBAI 400076",zuver12345,,0,2,9594728180,Male,07-03-1980,A,MH 29 201500001633,"English, Hindi, Marathi ",3,9
373,Lalchand Yadav,Yadav,lalchand3828@gmail.com,"naher sigh tabala , near ram mandir , goregaon west ",zuver12345,8babc06a1ce6b038,1,2,9820366828,Male,05-07-1966,A,MH 02 199900011169,"English, Hindi, Marathi ",20,10
374,Gaus Khan,Khan,gausgk@gmail.com,"aMBEDKAR CHAWL , ROOM NO B 20 , INDRA NAGAR , DHARAVI MUMBAI 7 NEAR SION HOSPITAL ",zuver12345,,0,2,9833542959,Male,20-10-1991,A,MH 01 20100047642,"English, Hindi, Marathi ",7,8
375,Salim Khan,Khan,salimkhan@gmail.com,"ROOM NO 523 , KALI BHARANI , NAIK NAGAR , LAL BAHADUR SHASTRI NAGAR NEAR KADRI MASJID , SION MUMBAI 400022",zuver12345,,0,2,8268477661,Male,22-05-1992,A,MH 01 20130040983,"English, Hindi, Marathi ",3,8
376,Sharique Latiff,Latiff,shariqueshaikh@gmail.com,"47/5 L.I.G colony vob nagar , kurla west  mumbai 400070",zuver12345,,0,2,9987594978,Male,14-11-1988,A,MH 02 20063015356,"English, Hindi, Marathi ",7,graduate
377,Shivaji,Sargar,alankarsargar@gmail.com,"Datta mandir, R.No.4,Maharashrian Society, khardev Nagar ghatla, Chembur, Mumbai-400071",zuver123,a1477a65c1559c4f,1,2,9920208251,Male,09-08-1975,A,MH03-20100075139,"Marathi, Hindi",12 Years,10
378,Dinesh Rathod,Rathod,dinesh993060@gmail.com,"Worli police camp . 27/17 , pochkhanawala road . mumbai 40030",zuver12345,149cbcadead70653,1,2,9930607540,Male,28-09-1978,D,MH 01 200429190,"English, Hindi, Marathi , Gujrati",3,12
379,Farook Haider,Haider,farookkazi@gmail.com,"Mumbra , Sultana Palace , c ing 501 mumbai 400612",zuver12345,fa6d83d6c830d3ca,1,2,9967056503,Male,18-05-1980,A,MH 04 20050032984,"English, Hindi, Marathi ",8,8
380,Mushtaque Momin,Momin,onlypetsshop@gmail.com,"New Hind mahada colony , c-3 building , 19th floor flat no 1903 , Ghodapdev , byculla , mumbai 400033",zuver12345,ffb355dbc311658c,1,2,9819067567,Male,16-10-1969,A,MH 01 20090128882,"English, Hindi, Marathi ",9,SSC
381,Vilas Shingare,Shingare,vilas.shingare2013@gmail.com,"Sai sadan 4 , rooom no 7 , chetna high school , haji malang road , kalyan east ",zuver12345,,0,2,9619203840,Male,01-06-1972,A,MH 01 19950059862,"English, Hindi, Marathi ",20,10
382,Pravin Kadam,Kadam,shitole3355.ruturaz.in@gmail.com,"A 504 , bhakti organet , sec no 35 , khamothe ",zuver12345,,0,2,9503555960,Male,29-06-1989,T,mh 11 20081004975,"English, Hindi, Marathi ",6,12
383,Rizwan,Azmi,mdrizwanazmi82@gmail.com,Noorejahancomplex(old) C wing 1st floor flat no101 opp kurla nursing home kurla west mumbai 70,zuver123,729e1441a8cef255,1,2,9967517577,Male,16-04-1982,A,MH01200613191,"English,Hindi",10 Years,HSC
384,Salauddin Shaikh,Shaikh,salauddinshaikh3517@gmail.com,"ROOM NO 1 , SAKINA BAI CHAWL, MASRANI LANE , HALAV POOL KURLA WEST ",zuver12345,,0,2,8108989684,Male,30-11-1984,A,MH 03 20090094878,"English, Hindi, Marathi ",10,SSC
385,Mohammed Tanvir Khan,Khan,tanweer92raza@gmail.com,"ABUBAKKAR MANZIL, MOHAMMED UMAR KOKIL MARG MUMBAI 400009",zuver12345,,0,2,9920064386,Male,01-01-1982,A,MH 01 20080026366,"English, Hindi, Marathi ",6,10
386,Prasad Kishore Keni,Keni,prasad040380@hotmail.com,"SHREE SAI KRIPA APARTMENT , ROOM NO 401, PHOOL PADA ROAD , VIRAR EAST (PERMANENT)

LAXMI SINGH COMP, WASRI HILL , ML ROAD , NEAR AKANSHA BUILDING , GOREGAON WEST(RENT)",zuver123,a5bdd029acca262f,1,2,8692026749,Male,04-03-1980,A,MH 04 20000019080,"English, Hindi, Marathi",10,HSC
387,YogeshSantosh Naikwadi,Naikwadi,yogesh999naik@gmail.com,"201, SHREEJI DARSHAN , CHARNI PADA ANJUR PHATA , RAHNAL BHIWANDI , THANE ",zuver12345,53206171c84c3a24,1,2,7719973000,Male,15-04-1989,A,MH 04 20120007942,"English, Hindi, Marathi ",4,12
388,Surendra Pandarinath Ladd,Ladd,surendraladd@gmail.com,"Shiv dharavi , near devi mandir , ganesh chawl  (Rent)

At post andhar ali talikha roha , district raigad ( permanent )",zuver12345,,0,2,9272679847,Male,15-12-1975,A,MH 06 20110007126,"English, Hindi, Marathi ",30,7
389,Satyanarayan Vangari,Vangari,satyanarayanvangari88@gmail.com,"Bldg No 169 , room no 87 second floor , Panchashil Niwas , 5 lane kamathi pura 
Date of birth 10/01/1958",zuver12345,eaae5ec122f1b302,1,2,8879419401,Male,10-07-1966,A,MH 01 19770005208,"English, Hindi, Marathi ",10 Years,5
390,Jomon C Jose,Jose,jomonebenezer@gmail.com,"101 HARI NIWAS KHAMBAAL PADA , KANCHANGAON , THAKURALI EAST , DOMBIVALI ",zuver12345,d69a7e4d0e250ff4,1,2,7700007257,Male,02-07-1973,A,MH 06 7403 PEN 03 ,"English, Hindi, Marathi ",21,MECHANICAL ENGINEER
391,Nareh N Gholam,Gholam,nareshgholam12@gmail.com,"Shri Sambhaji nagar , c ward , near wester express highway opposite , sai baba temple , vile parle east , andheri , mumbai 400099",zuver12345,,0,2,7506843207,Male,01-12-1990,A,MH 02 20160010852,"English, Hindi, Marathi",2 years 6 month,F Y B COM
392,Sunil Takale,Takale,suniltakale234@gmail.com,"KALEWADI DHOBHI GHAT , GIDIE CHAWL , NO 5 ROOM NO 14 GD AMBEDKAR ROAD , KALA CHAOWKI MUMBAI 400033",zuver12345,f2e5c33530a9aa4b,1,2,8369012757,Male,25-05-1976,A,MH 01 19990044842,"English, Hindi, Marathi ",19,7
393,Mushtaque Ali,Bukhari,mushtaquealibukhari@yahoo.com,"High Life CHS ltd, A-wing, Flat No. 301,MHADA, Colony MAlwani, Malad west, Mumbai-400095",zuver123,,0,2,9833040225,Male,05-01-1966,A,MH-01 19790009406,"Hindi,Marathi,Englsh",15,HSC
394,Ajit Gangdhar,Gangdhar,ajit.gangdhar@gmail.com,"FLAT NO 2 ARYA INDRA HOUSING SOCIETY , KULGAON  , NEAR  TALATHI  OFFICE  , BADLAPUR EAST 
",zuver12345,,0,2,9022988200,Male,15-10-1979,A,MH 12 20120084917,"English, Hindi, Marathi ",6,HSC
395,Mohammed Riyaz Bakar,Bakar,sayyedriyaz43@gmail.com,"BORI CHAWL, GOLI BAAD ROAD , NEAR AMBEWADI , JAWAR NAGAR KHAR EAST ",zuver12345,903253de6b5da3b7,1,2,8767015450,Male,22-10-1969,A,MH 02 19940040116,"English, Hindi, Marathi ",20,8
396,Ravindra,Bendra,ravindrarj1990@gmail.com,"S.T Road, behind Samarth nagar, shrikrushna chawl No-03, Chembur Mumbai-400071",zuver123,dbf6c56cd61ad49b,1,2,9619251976,Male,11-09-1990,A,MH-01 20100026608,"Hindi,Marathi,Englsh",6 years,11th
397,Ravindra Pawar,Pawar,ravindra.pawar3107@gmail.com,"prashant niwas , patrer building , room no 2 kalyan east ",zuver12345,,0,2,9702332952,Male,31-07-1989,A,MH 12 20100030852,"English, Hindi, Marathi ",6,12
398,Siddeek ,Shaikh,rupeshsuvare14@gmail.com,"1 st floor, Room No.2, Bachoo Ali Bldg, 66, Nishanpada road, Mum-400009",zuver123,,0,2,9322273878,Male,01-10-1981,A,MH-01 20070065666,Hindi,15 Years,8 th
399,Upendrakumar,Harijan,uupendra1435@gmail.com,"Room No.4,Dukhai Choudhary chawl, Hanuman Nagar, Bhandup west Mumbai-400078",zuver123,c58871f5a0002b2a,1,2,8108001435,Male,15-06-1992,A,MH03 20110016005,"Hindi,Marathi,Englsh",5,HSC
400,Mohd Arif,Shaikh,arifalinashaikh@gmail.com,"Manisha Nagar, saibaba nagar,near buddh vihar,kalawa west thane-400605",zuver123,c532a318b3e4b60a,1,2,9594438716,Male,20-06-1975,A,MH01 120090014010,"Hindi, Bangali,Marathi",20,9th
401,Dyaneshwar,Pawar,shubhamsuryvshi@gmail.com,"Gautam Nagar,powai,Near Dyandeep school, opp IIT main Gate Mumbai-400076",zuver123,d91c01be5622b5e3,1,2,9960333235,Male,12-11-1980,A,MH02 20050043982,"Marathi, Hindi",11,10th
402,Riyaz ,Qureshi,riyazqureshi045@gmail.com,"581,Nargis Dutt Nagar,K C Marg, Near Telephone echange,Mumbai-400050, Bandra west",zuver123,,0,2,773800717,Male,01-06-1968,T,MH02 20090176045,"Hindi, Marathi",10 Years,8th 
403,Riyaz ,Qureshi,Riyazqureshi45@gmail.com,"581,Nargis Dutt Nagar,K C Marg, Near Telephone echange,Mumbai-400050, Bandra west",zuver123,e74b100b5d67bc0,1,2,7738007171,Male,01-06-1968,A,MH02 20090176045,"Hindi, Marathi",10 Years,8 th
404,Dinesh,Chaudhari,chaudharidinesh1995@gmail.com,"Room No.11, 3rd Floor, Kansai Gaon,Megh Drushti Apart.Bhindewadi Riksha Stop, Ambernath(East)",zuver123,,0,2,7276387857,Male,25-05-1995,A,MH19 20140034505,"Marathi, Hindi, Gujarati",3,S.Y.BSc
405,Sadre,Alam,mdsadrealam@gmail.com,"Room No.8, behind Jagatsmiriti & Shendre bldg, 1st x lane, N M Joshi marg, Byculla (w) Mum-400011",zuver123,,0,2,9004516071,Male,04-01-1968,A,MH01 19930027580,"Hindi, Marathi, English",23 year,10th
406,Altaf Seliya,Seliya,altafseliya@gmail.com,"217 / d M.S. Ali road gooradwala estate room no 2 , Bhindi bazaar mumbai no 3",zuver12345,,0,2,9324175323,Male,03-01-1980,A,MH 01 20010018392,"English, Hindi, Marathi ",7,7
407,Naved ,Khan,khannaved3259@gmail.com,"Durlabh Bhavan, C block, room no.10A1 Jal bhai Street, Mum-400004",zuver123,,0,2,9769170436,Male,10-09-1987,A,MH04 20040017234,"English, Hindi, Marathi , Gujrati",12 Years,9th
408,Mohd Waseem,Khan,waseemada786@gmail.com,"2nd Floor, Bariya bldg, 187, opp alfred talkies, Mum-400004",zuver123,,0,2,9833309933,Male,30-07-1989,A,MH01 20090036090,Hindi,4,8th 
409,Afzal ,Shaikh,afzalshaikh99201@gmail.com,"128/70 Razak Manzil, Dimtimkar road, 1st floor, Mum-400008",zuver123,c77ac11f68811bea,1,2,9769684967,Male,18-08-1966,A,MH01 19830052662,"Hindi, Marathi, English",30,SSC
410,Raju,Utekar,utekarsantosh58@gmail.com,"Daffal Bhavan, Ground floor, Kisan Nagar No.2, Road No.16, Wagle Street, Thane west",zuver123,e96db997dd888682,1,2,8879029815,Male,01-06-1968,A,MH03 20140029845,"Marathi, Hindi",7 Years,7 years
411,Rajesh,Sharma,ss4890890@gmail.com,"Bhima Mukadam Chawl, Nityanand Nagar,LBS Marg Ghatkopar west Mum-400086",zuver123,8df8e46747ee5ec7,1,2,9870044781,Male,03-09-1976,A,MH03 20080072763,"Hindi, Marathi",17 years,SSC
412,Shaikh ,Ali,shaikhaliali599@gmail.com,"Rajiv gandhi chawl, Kokari Agar, Sion Koliwada Mum-400037",zuver123,,0,2,8070577099,Male,10-11-1989,A,MH01 20080040095,"Hindi, English",8 years,8th 
413,Gurunath Shivaji Kadam,Kadam,gurunathkadam@rocketmail.com,"30/88 Phase 3 , Poddar Evergreen Housing Society , Badlapur east ",zuver12345,,0,2,7700996077,Male,25-12-1976,A,MH 09 20140037628,"English, Hindi, Marathi ",7,B.A
414,Faustine D ' cunha,Cunha,faustine1961@gmail.com,"House no 103, Kalina , Kolavery Village , Santacruz east 

Orignal birth date - 29-07-1961",zuver12345,,0,2,9987171296,Male,29-07-1966,A,MH 02 20110060381,"English, Hindi, Marathi ",30,B com D.M.E
415,Santosh Jaysing Gamre,Gamre,santoshgamre@gmail.com,"MS/ RB1/497/13 CENTRAL RAILWAY QUATERS , GUNPOWDER ROAD , MAZGAON MUMBAI 10 ",zuver12345,,0,2,8898324223,Male,20-02-1974,A,MH 01 19940013656,"English, Hindi, Marathi ",22,10
416,Raju,Pawar,rajupawar88@gmail.com,"Room No.7,New Mill Road,Kurla,Near Laxman Chawl, Mumbai-400070",zuver123,,0,2,8286416348,Male,22-11-1988,A,MH 11 20091003736,"Hindi, Marathi",8 years,5th
417,Sunil,More,more92039@gmail.com,"Sai krupa Society, F wing, R.no.203,Kurla East, Mumbai-400024",zuver123,e1113b77168eb1a2,1,2,7039233682,Male,26-04-1978,A,MH03 20120004994,"Hindi, Marathi, English",5 years,12th
418,Aravind,Paswan,paswana094@gmail.com,"Durga mata chawl, sanjay nagar, Kandavali west ",zuver123,99f82737babd78f1,1,2,9619811032,Male,20-01-1983,A,MH02 06 B 2967,"Hindi, Marathi",10 Years,8th 
419,Niraj ,Singh,ns116824@gmail.com,"Chatai Chawl, Cotton green Mum-400033",zuver123,c192f336d7f8dff9,1,2,9820699828,Male,14-04-1984,A,MH01 20090034064,"Hindi, Marathi, English",15,10th
420,Hapreet Singh,Bindra,hapreetsingh58@gmail.com,"4 Bunglow, Andheri",zuver123,,0,2,9022880208,Male,04-03-1980,A,MH04 2010025974,"Hindi, Punjabi, Marathi",15,SSC
421,Mohammed Shaukat,Shaikh,shaukatshaikh010@gmail.com,"Ground Floor, Room No.97, Sundar Nagar, Lala Nigam road, Colaba, Mumbai-400005",zuver123,291258ee944a9d3d,1,2,9833141476,Male,16-04-1977,A,MH01 20090011721,"English, Hindi, Marathi ",20,5th
422,Mohammed Gaus,Siddiqui,gaus.siddiqui@outlook.com,"Ashok nagar, Muhammadi MAsjid, Ghatkopar west",zuver123,,0,2,9769280782,Male,10-06-1968,A,MH03 20120042292,"English,Hindi",8  years,BA
423,Prasad Ashok Salvi,Salvi,prasadsalvi06@gmail.com,"306 Sunder pruthvi appartment , behind otswaal shopping center , bunder wadi , bhayender east ",zuver12345,f76fe823ce136813,1,2,8898516551,Male,23-02-1989,A,MH 04 20071007350,"English, Hindi, Marathi ",4,12
424,Chintu Jogindra Singh,Singh,chintusingh1011@gmail.com,"AMRESH SINGH CHAWL, KURLA ANDHERI ROAD , NEAR SAFDEED POOL , OPPOSITYE BRIGHT PETROL PUMP , SAKINAKA KURLA WEST",zuver12345,,0,2,9619873688,Male,10-11-1984,A,MH 03 20071006666,"English, Hindi, Marathi ",7,8
425,Jagat Ram Yadav,Yadav,jagatramyadav@gmail.com,"Byculla Sunder Gali , Habib Market,Hunse road , Galla no 71",zuver12345,,0,2,9892036098,Male,01-07-1972,A,mh 01 20090115899,"English, Hindi, Marathi",17 years,5
426,Ravi Subhash Lokhande,Lokhande,ravilokhande00@gmail.com,"FOOLPADA ROAD , VIKAS NAGRI , SAI AMRUT APPARTMENT , ROOM NO 403 , VIRAR EAST ",zuver12345,1bd4dff9ae35b49f,1,2,9773745026,Male,15-02-1982,A,MH 01 0214743,"English, Hindi, Marathi ",14,8th 
427,Mehboob Shaikh,Shaikgh,mehboobhasanshaikh800@gmail.com,"Baithul Rehan , Opposite bypaas road , first floor , Mumbra , thane ",zuver12345,,0,2,9890718055,Male,21-09-1993,A,mh 04 4819616,"English, Hindi, Marathi ",14,12th
428,Anikesh Ashok,Jadhav,jadhavanikesh@gmail.com,"Near Nalanda Bailwadi Room no 302, jai Ambe society , Varsha Nagar , Park site , vikrioli ",zuver123,d7dc149273878a00,1,2,8879441241,Male,27-02-1984,A,MH 03 35568,"English, Hindi, Marathi ",15,10
429,Rajendra,Rasal,rajendrarasal@gmail.com,"Antop hill Bharni  naka, Vijay nagar,Room No203, Wadala East",zuver123,,0,2,8291632981,Male,23-07-1986,A,MH02 20130014482,"Marathi, Hindi",11 years,12th
430,Rakesh,Bhadarka,rakeshbhadrka65@gmail.com,"537/B-Laxmi puja Apt, J.R. Boricha Marg, Arthar road",zuver123,,0,2,9769806742,Male,07-07-1967,A,MH01 201169032,"Marathi, Hindi,English",20,8th 
431,Santosh Ashok Kapdekar,Kapdekar,mamta120480@gmail.com,G 11 OM SHREE HARI KADAM MAHATAN WADI MIRA GAUTHAN MIRAROAD EAST ,zuver12345,97d5dc53d5c38862,1,2,9833274117,Male,16-03-1982,A,MH 01 2001 495493,"English, Hindi, Marathi ",2,SSC
432,Mohd Rais,Shaikh,raisshaikh@gmail.com,"Akbar lala compound, Azad nagar,Ghatkopar west Mum-400086",zuver123,,0,2,9004751906,Male,26-12-1974,A,MH03 20080044889,Hindi,15,9th
433,Sushil,zha,sushilzha@gmail.com,"Ground Floor, R/101, Motilal nehru nagar, S M road, Sion Koliwada Mumbai-400037",zuver123,d8645c65a514371a,1,2,9702250096,Male,21-06-1988,A,MH01 20120022214,"Hindi, Marathi, English",4,8th 
434,Arshad,Khan,arshad.nivea@rediffmail.com,"301, Sahil Faraz CHS, Pooja Nagar,Mira road East Thane-401107",zuver123,feef3a9eee005ae7,1,2,8655132337,Male,13-12-1967,A,MH01 19840020266,"Hindi, Marathi, English",20,12th
435,Salim Niyamatullah,khan,saalimkhan123678@gmail.com,"GAFOOR LALA CHAWL,GAONDEVI , DONGRI , ANDHERUI WEST ",zuver123,,0,2,9870553172,Male,02-07-1967,A,MH 02  19810020834,"English, Hindi, Marathi ",20,SSC
